NinthProject-00/simulation/qsim/NinthProject-00.msim.vcd
$comment
	File created using the following command:
		vcd file NinthProject-00.msim.vcd -direction
$end
$date
	Wed Dec 27 19:37:06 2017
$end
$version
	ModelSim Version 10.1d
$end
$timescale
	1ps
$end
$scope module NinthProject_00_vlg_vec_tst $end
$var reg 1 ! clk $end
$var reg 1 " clr $end
$var reg 8 # ing [7:0] $end
$var reg 2 $ md [1:0] $end
$var reg 1 % rst $end
$var wire 1 & flag $end
$var wire 1 ' num [7] $end
$var wire 1 ( num [6] $end
$var wire 1 ) num [5] $end
$var wire 1 * num [4] $end
$var wire 1 + num [3] $end
$var wire 1 , num [2] $end
$var wire 1 - num [1] $end
$var wire 1 . num [0] $end
$var wire 1 / selmo [7] $end
$var wire 1 0 selmo [6] $end
$var wire 1 1 selmo [5] $end
$var wire 1 2 selmo [4] $end
$var wire 1 3 selmo [3] $end
$var wire 1 4 selmo [2] $end
$var wire 1 5 selmo [1] $end
$var wire 1 6 selmo [0] $end
$var wire 1 7 sampler $end
$scope module i1 $end
$var wire 1 8 gnd $end
$var wire 1 9 vcc $end
$var wire 1 : unknown $end
$var tri1 1 ; devclrn $end
$var tri1 1 < devpor $end
$var tri1 1 = devoe $end
$var wire 1 > inst|cnt1[0]~32_combout $end
$var wire 1 ? inst|cnt1[0]~33 $end
$var wire 1 @ inst|cnt1[1]~35_combout $end
$var wire 1 A inst|cnt1[1]~36 $end
$var wire 1 B inst|cnt1[2]~37_combout $end
$var wire 1 C inst|cnt1[2]~38 $end
$var wire 1 D inst|cnt1[3]~39_combout $end
$var wire 1 E inst|cnt1[3]~40 $end
$var wire 1 F inst|cnt1[4]~41_combout $end
$var wire 1 G inst|cnt1[4]~42 $end
$var wire 1 H inst|cnt1[5]~43_combout $end
$var wire 1 I inst|cnt1[5]~44 $end
$var wire 1 J inst|cnt1[6]~45_combout $end
$var wire 1 K inst|cnt1[6]~46 $end
$var wire 1 L inst|cnt1[7]~47_combout $end
$var wire 1 M inst|cnt1[7]~48 $end
$var wire 1 N inst|cnt1[8]~49_combout $end
$var wire 1 O inst|cnt1[8]~50 $end
$var wire 1 P inst|cnt1[9]~51_combout $end
$var wire 1 Q inst|cnt1[9]~52 $end
$var wire 1 R inst|cnt1[10]~53_combout $end
$var wire 1 S inst|cnt1[10]~54 $end
$var wire 1 T inst|cnt1[11]~55_combout $end
$var wire 1 U inst|cnt1[11]~56 $end
$var wire 1 V inst|cnt1[12]~57_combout $end
$var wire 1 W inst|cnt1[12]~58 $end
$var wire 1 X inst|cnt1[13]~59_combout $end
$var wire 1 Y inst|cnt1[13]~60 $end
$var wire 1 Z inst|cnt1[14]~61_combout $end
$var wire 1 [ inst|cnt1[14]~62 $end
$var wire 1 \ inst|cnt1[15]~63_combout $end
$var wire 1 ] inst|cnt1[15]~64 $end
$var wire 1 ^ inst|cnt1[16]~65_combout $end
$var wire 1 _ inst|cnt1[16]~66 $end
$var wire 1 ` inst|cnt1[17]~67_combout $end
$var wire 1 a inst|cnt1[17]~68 $end
$var wire 1 b inst|cnt1[18]~69_combout $end
$var wire 1 c inst|cnt1[18]~70 $end
$var wire 1 d inst|cnt1[19]~71_combout $end
$var wire 1 e inst|cnt1[19]~72 $end
$var wire 1 f inst|cnt1[20]~73_combout $end
$var wire 1 g inst|cnt1[20]~74 $end
$var wire 1 h inst|cnt1[21]~75_combout $end
$var wire 1 i inst|cnt1[21]~76 $end
$var wire 1 j inst|cnt1[22]~77_combout $end
$var wire 1 k inst|cnt1[22]~78 $end
$var wire 1 l inst|cnt1[23]~79_combout $end
$var wire 1 m inst|cnt1[23]~80 $end
$var wire 1 n inst|cnt1[24]~81_combout $end
$var wire 1 o inst|cnt1[24]~82 $end
$var wire 1 p inst|cnt1[25]~83_combout $end
$var wire 1 q inst|cnt1[25]~84 $end
$var wire 1 r inst|cnt1[26]~85_combout $end
$var wire 1 s inst|cnt1[26]~86 $end
$var wire 1 t inst|cnt1[27]~87_combout $end
$var wire 1 u inst|cnt1[27]~88 $end
$var wire 1 v inst|cnt1[28]~89_combout $end
$var wire 1 w inst|cnt1[28]~90 $end
$var wire 1 x inst|cnt1[29]~91_combout $end
$var wire 1 y inst|cnt1[29]~92 $end
$var wire 1 z inst|cnt1[30]~93_combout $end
$var wire 1 { inst|cnt1[30]~94 $end
$var wire 1 | inst|cnt1[31]~95_combout $end
$var wire 1 } inst2|Selector4~2_combout $end
$var wire 1 ~ inst|LessThan3~0_combout $end
$var wire 1 !! inst|LessThan3~1_combout $end
$var wire 1 "! inst|LessThan3~2_combout $end
$var wire 1 #! inst|LessThan3~3_combout $end
$var wire 1 $! inst|LessThan3~4_combout $end
$var wire 1 %! inst|LessThan3~5_combout $end
$var wire 1 &! inst|LessThan3~6_combout $end
$var wire 1 '! inst|LessThan3~7_combout $end
$var wire 1 (! inst|LessThan3~8_combout $end
$var wire 1 )! inst|LessThan3~9_combout $end
$var wire 1 *! inst|LessThan3~10_combout $end
$var wire 1 +! inst|clk_1hz~0_combout $end
$var wire 1 ,! inst|cnt1[23]~34_combout $end
$var wire 1 -! inst1|data~4_combout $end
$var wire 1 .! inst1|data~5_combout $end
$var wire 1 /! inst1|data~6_combout $end
$var wire 1 0! inst1|data~7_combout $end
$var wire 1 1! clk~input_o $end
$var wire 1 2! ing[7]~input_o $end
$var wire 1 3! ing[6]~input_o $end
$var wire 1 4! ing[3]~input_o $end
$var wire 1 5! ing[2]~input_o $end
$var wire 1 6! ing[1]~input_o $end
$var wire 1 7! ing[0]~input_o $end
$var wire 1 8! clk~inputclkctrl_outclk $end
$var wire 1 9! flag~output_o $end
$var wire 1 :! num[7]~output_o $end
$var wire 1 ;! num[6]~output_o $end
$var wire 1 <! num[5]~output_o $end
$var wire 1 =! num[4]~output_o $end
$var wire 1 >! num[3]~output_o $end
$var wire 1 ?! num[2]~output_o $end
$var wire 1 @! num[1]~output_o $end
$var wire 1 A! num[0]~output_o $end
$var wire 1 B! selmo[7]~output_o $end
$var wire 1 C! selmo[6]~output_o $end
$var wire 1 D! selmo[5]~output_o $end
$var wire 1 E! selmo[4]~output_o $end
$var wire 1 F! selmo[3]~output_o $end
$var wire 1 G! selmo[2]~output_o $end
$var wire 1 H! selmo[1]~output_o $end
$var wire 1 I! selmo[0]~output_o $end
$var wire 1 J! inst|clk_1hz~feeder_combout $end
$var wire 1 K! inst|clk_1hz~q $end
$var wire 1 L! inst|clk_1hz~clkctrl_outclk $end
$var wire 1 M! ing[5]~input_o $end
$var wire 1 N! ing[4]~input_o $end
$var wire 1 O! clr~input_o $end
$var wire 1 P! inst1|data~3_combout $end
$var wire 1 Q! inst1|data~2_combout $end
$var wire 1 R! inst1|data[5]~feeder_combout $end
$var wire 1 S! inst1|data~1_combout $end
$var wire 1 T! inst1|data~0_combout $end
$var wire 1 U! inst1|dout~0_combout $end
$var wire 1 V! inst1|dout~q $end
$var wire 1 W! inst2|Selector2~2_combout $end
$var wire 1 X! inst2|Selector2~6_combout $end
$var wire 1 Y! inst2|Selector2~3_combout $end
$var wire 1 Z! inst2|Selector2~4_combout $end
$var wire 1 [! inst2|Selector2~5_combout $end
$var wire 1 \! inst2|Selector5~0_combout $end
$var wire 1 ]! inst2|Selector5~1_combout $end
$var wire 1 ^! inst2|Equal0~0_combout $end
$var wire 1 _! inst2|Selector4~4_combout $end
$var wire 1 `! inst2|Selector6~2_combout $end
$var wire 1 a! inst2|Selector4~1_combout $end
$var wire 1 b! inst2|Selector4~5_combout $end
$var wire 1 c! inst2|Selector4~8_combout $end
$var wire 1 d! inst2|Selector4~9_combout $end
$var wire 1 e! inst2|Selector5~2_combout $end
$var wire 1 f! inst2|Selector3~2_combout $end
$var wire 1 g! inst2|Selector3~1_combout $end
$var wire 1 h! inst2|Selector3~3_combout $end
$var wire 1 i! inst2|Selector4~7_combout $end
$var wire 1 j! inst2|Selector3~0_combout $end
$var wire 1 k! inst2|Selector3~4_combout $end
$var wire 1 l! inst2|Selector4~0_combout $end
$var wire 1 m! inst2|Selector4~3_combout $end
$var wire 1 n! inst2|Selector4~6_combout $end
$var wire 1 o! inst2|Selector7~0_combout $end
$var wire 1 p! inst2|Selector7~1_combout $end
$var wire 1 q! inst2|Selector7~2_combout $end
$var wire 1 r! inst2|Selector7~3_combout $end
$var wire 1 s! inst2|Equal0~1_combout $end
$var wire 1 t! inst2|flag~q $end
$var wire 1 u! inst5|selm[0]~2_combout $end
$var wire 1 v! inst5|selm[1]~0_combout $end
$var wire 1 w! inst5|selm[2]~1_combout $end
$var wire 1 x! md[0]~input_o $end
$var wire 1 y! inst4|Mux23~0_combout $end
$var wire 1 z! md[1]~input_o $end
$var wire 1 {! inst4|Dout4[1]~0_combout $end
$var wire 1 |! inst4|Mux27~0_combout $end
$var wire 1 }! inst4|Mux31~0_combout $end
$var wire 1 ~! inst4|Mux19~0_combout $end
$var wire 1 !" inst5|Mux3~0_combout $end
$var wire 1 "" inst5|Mux3~1_combout $end
$var wire 1 #" inst4|Mux7~0_combout $end
$var wire 1 $" inst4|Mux11~0_combout $end
$var wire 1 %" inst4|Mux15~0_combout $end
$var wire 1 &" inst4|Mux3~0_combout $end
$var wire 1 '" inst5|Mux3~2_combout $end
$var wire 1 (" inst5|Mux3~3_combout $end
$var wire 1 )" inst5|Mux3~4_combout $end
$var wire 1 *" inst4|Mux1~0_combout $end
$var wire 1 +" inst4|Mux5~0_combout $end
$var wire 1 ," inst4|Mux9~0_combout $end
$var wire 1 -" inst4|Mux13~0_combout $end
$var wire 1 ." inst4|Mux17~0_combout $end
$var wire 1 /" inst4|Mux21~0_combout $end
$var wire 1 0" inst4|Mux25~0_combout $end
$var wire 1 1" inst4|Mux29~0_combout $end
$var wire 1 2" inst5|Mux1~0_combout $end
$var wire 1 3" inst5|Mux1~1_combout $end
$var wire 1 4" inst5|Mux1~2_combout $end
$var wire 1 5" inst5|Mux1~3_combout $end
$var wire 1 6" inst5|Mux1~4_combout $end
$var wire 1 7" inst4|Mux22~0_combout $end
$var wire 1 8" inst4|Mux26~0_combout $end
$var wire 1 9" inst4|Mux30~0_combout $end
$var wire 1 :" inst4|Mux2~0_combout $end
$var wire 1 ;" inst4|Mux6~0_combout $end
$var wire 1 <" inst4|Mux10~0_combout $end
$var wire 1 =" inst4|Mux14~0_combout $end
$var wire 1 >" inst4|Mux18~0_combout $end
$var wire 1 ?" inst5|Mux2~0_combout $end
$var wire 1 @" inst5|Mux2~1_combout $end
$var wire 1 A" inst5|Mux2~2_combout $end
$var wire 1 B" inst5|Mux2~3_combout $end
$var wire 1 C" inst5|Mux2~4_combout $end
$var wire 1 D" inst6|WideOr0~0_combout $end
$var wire 1 E" inst6|WideOr1~0_combout $end
$var wire 1 F" inst6|Decoder0~0_combout $end
$var wire 1 G" inst6|WideOr5~0_combout $end
$var wire 1 H" inst6|WideOr6~0_combout $end
$var wire 1 I" rst~input_o $end
$var wire 1 J" inst|clk_1khz~0_combout $end
$var wire 1 K" inst|clk_1khz~feeder_combout $end
$var wire 1 L" inst|clk_1khz~q $end
$var wire 1 M" inst|clk_1khz~clkctrl_outclk $end
$var wire 1 N" inst5|Decoder0~0_combout $end
$var wire 1 O" inst5|Decoder0~1_combout $end
$var wire 1 P" inst5|Decoder0~2_combout $end
$var wire 1 Q" inst5|Decoder0~3_combout $end
$var wire 1 R" inst5|Decoder0~4_combout $end
$var wire 1 S" inst5|Decoder0~5_combout $end
$var wire 1 T" inst5|Decoder0~6_combout $end
$var wire 1 U" inst5|Decoder0~7_combout $end
$var wire 1 V" inst4|Dout3 [3] $end
$var wire 1 W" inst4|Dout3 [2] $end
$var wire 1 X" inst4|Dout3 [1] $end
$var wire 1 Y" inst4|Dout3 [0] $end
$var wire 1 Z" inst4|Dout2 [3] $end
$var wire 1 [" inst4|Dout2 [2] $end
$var wire 1 \" inst4|Dout2 [1] $end
$var wire 1 ]" inst4|Dout2 [0] $end
$var wire 1 ^" inst|cnt1 [31] $end
$var wire 1 _" inst|cnt1 [30] $end
$var wire 1 `" inst|cnt1 [29] $end
$var wire 1 a" inst|cnt1 [28] $end
$var wire 1 b" inst|cnt1 [27] $end
$var wire 1 c" inst|cnt1 [26] $end
$var wire 1 d" inst|cnt1 [25] $end
$var wire 1 e" inst|cnt1 [24] $end
$var wire 1 f" inst|cnt1 [23] $end
$var wire 1 g" inst|cnt1 [22] $end
$var wire 1 h" inst|cnt1 [21] $end
$var wire 1 i" inst|cnt1 [20] $end
$var wire 1 j" inst|cnt1 [19] $end
$var wire 1 k" inst|cnt1 [18] $end
$var wire 1 l" inst|cnt1 [17] $end
$var wire 1 m" inst|cnt1 [16] $end
$var wire 1 n" inst|cnt1 [15] $end
$var wire 1 o" inst|cnt1 [14] $end
$var wire 1 p" inst|cnt1 [13] $end
$var wire 1 q" inst|cnt1 [12] $end
$var wire 1 r" inst|cnt1 [11] $end
$var wire 1 s" inst|cnt1 [10] $end
$var wire 1 t" inst|cnt1 [9] $end
$var wire 1 u" inst|cnt1 [8] $end
$var wire 1 v" inst|cnt1 [7] $end
$var wire 1 w" inst|cnt1 [6] $end
$var wire 1 x" inst|cnt1 [5] $end
$var wire 1 y" inst|cnt1 [4] $end
$var wire 1 z" inst|cnt1 [3] $end
$var wire 1 {" inst|cnt1 [2] $end
$var wire 1 |" inst|cnt1 [1] $end
$var wire 1 }" inst|cnt1 [0] $end
$var wire 1 ~" inst1|data [7] $end
$var wire 1 !# inst1|data [6] $end
$var wire 1 "# inst1|data [5] $end
$var wire 1 ## inst1|data [4] $end
$var wire 1 $# inst1|data [3] $end
$var wire 1 %# inst1|data [2] $end
$var wire 1 &# inst1|data [1] $end
$var wire 1 '# inst1|data [0] $end
$var wire 1 (# inst4|Dout6 [3] $end
$var wire 1 )# inst4|Dout6 [2] $end
$var wire 1 *# inst4|Dout6 [1] $end
$var wire 1 +# inst4|Dout6 [0] $end
$var wire 1 ,# inst4|Dout4 [3] $end
$var wire 1 -# inst4|Dout4 [2] $end
$var wire 1 .# inst4|Dout4 [1] $end
$var wire 1 /# inst4|Dout4 [0] $end
$var wire 1 0# inst5|outm [3] $end
$var wire 1 1# inst5|outm [2] $end
$var wire 1 2# inst5|outm [1] $end
$var wire 1 3# inst5|outm [0] $end
$var wire 1 4# inst4|Dout5 [3] $end
$var wire 1 5# inst4|Dout5 [2] $end
$var wire 1 6# inst4|Dout5 [1] $end
$var wire 1 7# inst4|Dout5 [0] $end
$var wire 1 8# inst4|Dout7 [3] $end
$var wire 1 9# inst4|Dout7 [2] $end
$var wire 1 :# inst4|Dout7 [1] $end
$var wire 1 ;# inst4|Dout7 [0] $end
$var wire 1 <# inst4|Dout0 [3] $end
$var wire 1 =# inst4|Dout0 [2] $end
$var wire 1 ># inst4|Dout0 [1] $end
$var wire 1 ?# inst4|Dout0 [0] $end
$var wire 1 @# inst5|selmo [7] $end
$var wire 1 A# inst5|selmo [6] $end
$var wire 1 B# inst5|selmo [5] $end
$var wire 1 C# inst5|selmo [4] $end
$var wire 1 D# inst5|selmo [3] $end
$var wire 1 E# inst5|selmo [2] $end
$var wire 1 F# inst5|selmo [1] $end
$var wire 1 G# inst5|selmo [0] $end
$var wire 1 H# inst4|Dout1 [3] $end
$var wire 1 I# inst4|Dout1 [2] $end
$var wire 1 J# inst4|Dout1 [1] $end
$var wire 1 K# inst4|Dout1 [0] $end
$var wire 1 L# inst2|c_state [7] $end
$var wire 1 M# inst2|c_state [6] $end
$var wire 1 N# inst2|c_state [5] $end
$var wire 1 O# inst2|c_state [4] $end
$var wire 1 P# inst2|c_state [3] $end
$var wire 1 Q# inst2|c_state [2] $end
$var wire 1 R# inst2|c_state [1] $end
$var wire 1 S# inst2|c_state [0] $end
$var wire 1 T# inst5|selm [2] $end
$var wire 1 U# inst5|selm [1] $end
$var wire 1 V# inst5|selm [0] $end
$upscope $end
$upscope $end
$enddefinitions $end
#0
$dumpvars
0!
1"
b100010 #
b1 $
1%
1&
0.
0-
1,
1+
1*
1)
1(
1'
06
05
04
03
02
01
00
0/
x7
08
19
x:
1;
1<
1=
1>
0?
0@
1A
0B
0C
0D
1E
0F
0G
0H
1I
0J
0K
0L
1M
0N
0O
0P
1Q
0R
0S
0T
1U
0V
0W
0X
1Y
0Z
0[
0\
1]
0^
0_
0`
1a
0b
0c
0d
1e
0f
0g
0h
1i
0j
0k
0l
1m
0n
0o
0p
1q
0r
0s
0t
1u
0v
0w
0x
1y
0z
0{
0|
1}
1~
1!!
1"!
1#!
1$!
1%!
1&!
1'!
1(!
1)!
1*!
0+!
1,!
0-!
0.!
0/!
00!
01!
02!
03!
04!
05!
16!
07!
08!
19!
1:!
1;!
1<!
1=!
1>!
1?!
0@!
0A!
0B!
0C!
0D!
0E!
0F!
0G!
0H!
0I!
0J!
0K!
0L!
1M!
0N!
1O!
0P!
0Q!
0R!
0S!
0T!
0U!
0V!
0W!
0X!
0Y!
0Z!
0[!
0\!
0]!
0^!
0_!
1`!
0a!
0b!
0c!
0d!
1e!
0f!
0g!
0h!
1i!
0j!
0k!
0l!
0m!
1n!
0o!
0p!
1q!
1r!
0s!
0t!
1u!
0v!
0w!
1x!
0y!
0z!
1{!
0|!
0}!
0~!
0!"
0""
0#"
0$"
0%"
0&"
0'"
0("
0)"
0*"
0+"
0,"
0-"
0."
0/"
00"
01"
02"
03"
04"
05"
06"
07"
08"
09"
0:"
0;"
0<"
0="
0>"
0?"
0@"
0A"
0B"
0C"
0D"
0E"
1F"
0G"
0H"
1I"
0J"
0K"
0L"
0M"
1N"
1O"
1P"
1Q"
1R"
1S"
1T"
0U"
0Y"
0X"
0W"
zV"
0]"
0\"
0["
zZ"
0}"
0|"
0{"
0z"
0y"
0x"
0w"
0v"
0u"
0t"
0s"
0r"
0q"
0p"
0o"
0n"
0m"
0l"
0k"
0j"
0i"
0h"
0g"
0f"
0e"
0d"
0c"
0b"
0a"
0`"
0_"
0^"
0'#
0&#
0%#
0$#
0##
0"#
0!#
0~"
0+#
0*#
0)#
z(#
0/#
0.#
0-#
z,#
03#
02#
01#
z0#
07#
06#
05#
z4#
0;#
0:#
09#
z8#
0?#
0>#
0=#
z<#
0G#
0F#
0E#
0D#
0C#
0B#
0A#
0@#
0K#
0J#
0I#
zH#
0S#
0R#
0Q#
0P#
0O#
0N#
zM#
zL#
0V#
0U#
0T#
$end
#5000
1!
11!
18!
07
#10000
0!
01!
08!
17
#15000
1!
11!
18!
07
#20000
0%
0!
0I"
01!
08!
17
1J"
0,!
1K"
#25000
1!
11!
18!
07
1L"
1}"
1M"
0J"
1?
0>
0K"
1@
1V#
1F#
1E#
1D#
1C#
1B#
1A#
1@#
1U"
0T"
1v!
0u!
1H!
1G!
1F!
1E!
1D!
1C!
1B!
15
14
13
12
11
10
1/
#30000
0!
01!
08!
17
#35000
1!
11!
18!
07
0L"
1|"
0}"
0M"
1J"
0A
0@
0?
1>
1K"
1B
1A
1@
0B
#40000
0"
0!
0O!
01!
08!
17
1Q!
1/!
1R!
#45000
1!
11!
18!
07
1L"
1}"
1M"
0J"
1?
0>
0K"
0A
0@
1B
1U#
0V#
1G#
0F#
1T"
0S"
1u!
1I!
0H!
16
05
#50000
0!
01!
08!
17
#55000
1!
11!
18!
07
0L"
1{"
0|"
0}"
0M"
1J"
1C
0B
1A
1@
0?
1>
1K"
1D
0C
1B
0@
0D
#60000
0!
01!
08!
17
#65000
1!
11!
18!
07
1L"
1}"
1M"
0J"
1?
0>
0K"
1@
1V#
1F#
0E#
1S"
0R"
1A"
1?"
14"
12"
1'"
1!"
1w!
0v!
0u!
1H!
0G!
15
04
#70000
0!
01!
08!
17
#75000
1!
11!
18!
07
0L"
1|"
0}"
0M"
1J"
0A
0@
0?
1>
1K"
1C
0B
1A
1@
1D
0C
1B
0D
#80000
0!
01!
08!
17
#85000
1!
11!
18!
07
1L"
1}"
1M"
0J"
0~
1?
0>
0K"
0$!
0A
0@
0*!
1C
0B
1,!
1+!
1D
1J!
1T#
0U#
0V#
1E#
0D#
1R"
0Q"
0A"
1@"
0?"
04"
13"
02"
1("
0'"
1""
0!"
1B"
15"
1u!
1G!
0F!
14
03
0B"
1C"
0@"
05"
16"
03"
1)"
0("
0""
0C"
06"
0)"
#90000
0!
01!
08!
17
#95000
1!
11!
18!
07
0L"
1K!
0{"
0|"
0}"
0M"
1L!
1J"
0+!
1~
0C
1B
1A
1@
0?
1>
1K"
0J!
1$!
0D
0B
0@
1*!
0,!
1+!
1J!
1S#
1P#
1Q#
1R#
1"#
1&#
1f!
1Y!
1X!
1W!
1a!
1k!
0}
1l!
1j!
1\!
1Z!
1h!
1c!
1m!
1]!
0k!
1d!
#100000
0!
01!
08!
17
#105000
1!
11!
18!
07
1L"
1}"
1M"
0J"
1?
0>
0K"
1@
1V#
1D#
0C#
1Q"
0P"
1v!
0u!
1F!
0E!
13
02
#110000
0!
01!
08!
17
#115000
1!
11!
18!
07
0L"
1|"
0}"
0M"
1J"
0A
0@
0?
1>
1K"
1B
1A
1@
0B
#120000
0!
01!
08!
17
#125000
1!
11!
18!
07
1L"
1}"
1M"
0J"
1?
0>
0K"
0A
0@
1B
1U#
0V#
1C#
0B#
1P"
0O"
1u!
1E!
0D!
12
01
#130000
0!
01!
08!
17
#135000
1!
11!
18!
07
0L"
1{"
0|"
0}"
0M"
1J"
1C
0B
1A
1@
0?
1>
1K"
1D
0C
1B
0@
0D
#140000
0!
01!
08!
17
#145000
1!
11!
18!
07
1L"
1}"
1M"
0J"
1?
0>
0K"
1@
1V#
1B#
0A#
1O"
0N"
1A"
1?"
14"
12"
1'"
1!"
0w!
0v!
0u!
1D!
0C!
11
00
#150000
0!
01!
08!
17
#155000
1!
11!
18!
07
0L"
1|"
0}"
0M"
1J"
0A
0@
0?
1>
1K"
1C
0B
1A
1@
1D
0C
1B
0D
#160000
0!
01!
08!
17
#165000
1!
11!
18!
07
1L"
1}"
1M"
0J"
0~
1?
0>
0K"
0$!
0A
0@
0*!
1C
0B
1,!
0+!
1D
0J!
0T#
0U#
0V#
1A#
0@#
0U"
1N"
0A"
1@"
0?"
04"
13"
02"
1("
0'"
1""
0!"
1B"
15"
1u!
1C!
0B!
10
0/
0B"
1C"
0@"
05"
16"
03"
1)"
0("
0""
0C"
06"
0)"
#170000
0!
01!
08!
17
#175000
1!
11!
18!
07
0L"
0K!
0{"
0|"
0}"
0M"
0L!
1J"
1+!
1~
0C
1B
1A
1@
0?
1>
1K"
1J!
1$!
0D
0B
0@
1*!
0,!
0+!
0J!
#180000
0!
01!
08!
17
#185000
1!
11!
18!
07
1L"
1}"
1M"
0J"
1?
0>
0K"
1@
1V#
0G#
1@#
1U"
0T"
1v!
0u!
0I!
1B!
06
1/
#190000
0!
01!
08!
17
#195000
1!
11!
18!
07
0L"
1|"
0}"
0M"
1J"
0A
0@
0?
1>
1K"
1B
1A
1@
0B
#200000
0!
01!
08!
17
#205000
1!
11!
18!
07
1L"
1}"
1M"
0J"
1?
0>
0K"
0A
0@
1B
1U#
0V#
1G#
0F#
1T"
0S"
1u!
1I!
0H!
16
05
#210000
0!
01!
08!
17
#215000
1!
11!
18!
07
0L"
1{"
0|"
0}"
0M"
1J"
1C
0B
1A
1@
0?
1>
1K"
1D
0C
1B
0@
0D
#220000
0!
01!
08!
17
#225000
1!
11!
18!
07
1L"
1}"
1M"
0J"
1?
0>
0K"
1@
1V#
1F#
0E#
1S"
0R"
1A"
1?"
14"
12"
1'"
1!"
1w!
0v!
0u!
1H!
0G!
15
04
#230000
0!
01!
08!
17
#235000
1!
11!
18!
07
0L"
1|"
0}"
0M"
1J"
0A
0@
0?
1>
1K"
1C
0B
1A
1@
1D
0C
1B
0D
#240000
0!
01!
08!
17
#245000
1!
11!
18!
07
1L"
1}"
1M"
0J"
0~
1?
0>
0K"
0$!
0A
0@
0*!
1C
0B
1,!
1+!
1D
1J!
1T#
0U#
0V#
1E#
0D#
1R"
0Q"
0A"
1@"
0?"
04"
13"
02"
1("
0'"
1""
0!"
1B"
15"
1u!
1G!
0F!
14
03
0B"
1C"
0@"
05"
16"
03"
1)"
0("
0""
0C"
06"
0)"
#250000
0!
01!
08!
17
#255000
1!
11!
18!
07
0L"
1K!
0{"
0|"
0}"
0M"
1L!
1J"
0+!
1~
0C
1B
1A
1@
0?
1>
1K"
0J!
1$!
0D
0B
0@
1*!
0,!
1+!
1J!
#260000
0!
01!
08!
17
#265000
1!
11!
18!
07
1L"
1}"
1M"
0J"
1?
0>
0K"
1@
1V#
1D#
0C#
1Q"
0P"
1v!
0u!
1F!
0E!
13
02
#270000
0!
01!
08!
17
#275000
1!
11!
18!
07
0L"
1|"
0}"
0M"
1J"
0A
0@
0?
1>
1K"
1B
1A
1@
0B
#280000
0!
01!
08!
17
#285000
1!
11!
18!
07
1L"
1}"
1M"
0J"
1?
0>
0K"
0A
0@
1B
1U#
0V#
1C#
0B#
1P"
0O"
1u!
1E!
0D!
12
01
#290000
0!
01!
08!
17
#295000
1!
11!
18!
07
0L"
1{"
0|"
0}"
0M"
1J"
1C
0B
1A
1@
0?
1>
1K"
1D
0C
1B
0@
0D
#300000
0!
01!
08!
17
#305000
1!
11!
18!
07
1L"
1}"
1M"
0J"
1?
0>
0K"
1@
1V#
1B#
0A#
1O"
0N"
1A"
1?"
14"
12"
1'"
1!"
0w!
0v!
0u!
1D!
0C!
11
00
#310000
0!
01!
08!
17
#315000
1!
11!
18!
07
0L"
1|"
0}"
0M"
1J"
0A
0@
0?
1>
1K"
1C
0B
1A
1@
1D
0C
1B
0D
#320000
0!
01!
08!
17
#325000
1!
11!
18!
07
1L"
1}"
1M"
0J"
0~
1?
0>
0K"
0$!
0A
0@
0*!
1C
0B
1,!
0+!
1D
0J!
0T#
0U#
0V#
1A#
0@#
0U"
1N"
0A"
1@"
0?"
04"
13"
02"
1("
0'"
1""
0!"
1B"
15"
1u!
1C!
0B!
10
0/
0B"
1C"
0@"
05"
16"
03"
1)"
0("
0""
0C"
06"
0)"
#330000
0!
01!
08!
17
#335000
1!
11!
18!
07
0L"
0K!
0{"
0|"
0}"
0M"
0L!
1J"
1+!
1~
0C
1B
1A
1@
0?
1>
1K"
1J!
1$!
0D
0B
0@
1*!
0,!
0+!
0J!
#340000
0!
01!
08!
17
#345000
1!
11!
18!
07
1L"
1}"
1M"
0J"
1?
0>
0K"
1@
1V#
0G#
1@#
1U"
0T"
1v!
0u!
0I!
1B!
06
1/
#350000
0!
01!
08!
17
#355000
1!
11!
18!
07
0L"
1|"
0}"
0M"
1J"
0A
0@
0?
1>
1K"
1B
1A
1@
0B
#360000
0!
01!
08!
17
#365000
1!
11!
18!
07
1L"
1}"
1M"
0J"
1?
0>
0K"
0A
0@
1B
1U#
0V#
1G#
0F#
1T"
0S"
1u!
1I!
0H!
16
05
#370000
0!
01!
08!
17
#375000
1!
11!
18!
07
0L"
1{"
0|"
0}"
0M"
1J"
1C
0B
1A
1@
0?
1>
1K"
1D
0C
1B
0@
0D
#380000
0!
01!
08!
17
#385000
1!
11!
18!
07
1L"
1}"
1M"
0J"
1?
0>
0K"
1@
1V#
1F#
0E#
1S"
0R"
1A"
1?"
14"
12"
1'"
1!"
1w!
0v!
0u!
1H!
0G!
15
04
#390000
0!
01!
08!
17
#395000
1!
11!
18!
07
0L"
1|"
0}"
0M"
1J"
0A
0@
0?
1>
1K"
1C
0B
1A
1@
1D
0C
1B
0D
#400000
0!
01!
08!
17
#405000
1!
11!
18!
07
1L"
1}"
1M"
0J"
0~
1?
0>
0K"
0$!
0A
0@
0*!
1C
0B
1,!
1+!
1D
1J!
1T#
0U#
0V#
1E#
0D#
1R"
0Q"
0A"
1@"
0?"
04"
13"
02"
1("
0'"
1""
0!"
1B"
15"
1u!
1G!
0F!
14
03
0B"
1C"
0@"
05"
16"
03"
1)"
0("
0""
0C"
06"
0)"
#410000
0!
01!
08!
17
#415000
1!
11!
18!
07
0L"
1K!
0{"
0|"
0}"
0M"
1L!
1J"
0+!
1~
0C
1B
1A
1@
0?
1>
1K"
0J!
1$!
0D
0B
0@
1*!
0,!
1+!
1J!
#420000
0!
01!
08!
17
#425000
1!
11!
18!
07
1L"
1}"
1M"
0J"
1?
0>
0K"
1@
1V#
1D#
0C#
1Q"
0P"
1v!
0u!
1F!
0E!
13
02
#430000
0!
01!
08!
17
#435000
1!
11!
18!
07
0L"
1|"
0}"
0M"
1J"
0A
0@
0?
1>
1K"
1B
1A
1@
0B
#440000
0!
01!
08!
17
#445000
1!
11!
18!
07
1L"
1}"
1M"
0J"
1?
0>
0K"
0A
0@
1B
1U#
0V#
1C#
0B#
1P"
0O"
1u!
1E!
0D!
12
01
#450000
0!
01!
08!
17
#455000
1!
11!
18!
07
0L"
1{"
0|"
0}"
0M"
1J"
1C
0B
1A
1@
0?
1>
1K"
1D
0C
1B
0@
0D
#460000
0!
01!
08!
17
#465000
1!
11!
18!
07
1L"
1}"
1M"
0J"
1?
0>
0K"
1@
1V#
1B#
0A#
1O"
0N"
1A"
1?"
14"
12"
1'"
1!"
0w!
0v!
0u!
1D!
0C!
11
00
#470000
0!
01!
08!
17
#475000
1!
11!
18!
07
0L"
1|"
0}"
0M"
1J"
0A
0@
0?
1>
1K"
1C
0B
1A
1@
1D
0C
1B
0D
#480000
0!
01!
08!
17
#485000
1!
11!
18!
07
1L"
1}"
1M"
0J"
0~
1?
0>
0K"
0$!
0A
0@
0*!
1C
0B
1,!
0+!
1D
0J!
0T#
0U#
0V#
1A#
0@#
0U"
1N"
0A"
1@"
0?"
04"
13"
02"
1("
0'"
1""
0!"
1B"
15"
1u!
1C!
0B!
10
0/
0B"
1C"
0@"
05"
16"
03"
1)"
0("
0""
0C"
06"
0)"
#490000
0!
01!
08!
17
