TenthProject-01/simulation/qsim/TenthProject.msim.vcd
$comment
	File created using the following command:
		vcd file TenthProject.msim.vcd -direction
$end
$date
	Wed Dec 27 16:09:37 2017
$end
$version
	ModelSim Version 10.1d
$end
$timescale
	1ps
$end
$scope module Tenth_vlg_vec_tst $end
$var reg 1 ! clear $end
$var reg 1 " clk $end
$var reg 1 # pause $end
$var reg 1 $ rst $end
$var wire 1 % out_min [7] $end
$var wire 1 & out_min [6] $end
$var wire 1 ' out_min [5] $end
$var wire 1 ( out_min [4] $end
$var wire 1 ) out_min [3] $end
$var wire 1 * out_min [2] $end
$var wire 1 + out_min [1] $end
$var wire 1 , out_min [0] $end
$var wire 1 - out_ms [7] $end
$var wire 1 . out_ms [6] $end
$var wire 1 / out_ms [5] $end
$var wire 1 0 out_ms [4] $end
$var wire 1 1 out_ms [3] $end
$var wire 1 2 out_ms [2] $end
$var wire 1 3 out_ms [1] $end
$var wire 1 4 out_ms [0] $end
$var wire 1 5 out_num [7] $end
$var wire 1 6 out_num [6] $end
$var wire 1 7 out_num [5] $end
$var wire 1 8 out_num [4] $end
$var wire 1 9 out_num [3] $end
$var wire 1 : out_num [2] $end
$var wire 1 ; out_num [1] $end
$var wire 1 < out_num [0] $end
$var wire 1 = out_s [7] $end
$var wire 1 > out_s [6] $end
$var wire 1 ? out_s [5] $end
$var wire 1 @ out_s [4] $end
$var wire 1 A out_s [3] $end
$var wire 1 B out_s [2] $end
$var wire 1 C out_s [1] $end
$var wire 1 D out_s [0] $end
$var wire 1 E out_sel [7] $end
$var wire 1 F out_sel [6] $end
$var wire 1 G out_sel [5] $end
$var wire 1 H out_sel [4] $end
$var wire 1 I out_sel [3] $end
$var wire 1 J out_sel [2] $end
$var wire 1 K out_sel [1] $end
$var wire 1 L out_sel [0] $end
$var wire 1 M sampler $end
$scope module i1 $end
$var wire 1 N gnd $end
$var wire 1 O vcc $end
$var wire 1 P unknown $end
$var tri1 1 Q devclrn $end
$var tri1 1 R devpor $end
$var tri1 1 S devoe $end
$var wire 1 T inst6|cnt1[0]~32_combout $end
$var wire 1 U inst6|cnt1[0]~33 $end
$var wire 1 V inst6|cnt1[1]~35_combout $end
$var wire 1 W inst6|cnt1[1]~36 $end
$var wire 1 X inst6|cnt1[2]~37_combout $end
$var wire 1 Y inst6|cnt1[2]~38 $end
$var wire 1 Z inst6|cnt1[3]~39_combout $end
$var wire 1 [ inst6|cnt1[3]~40 $end
$var wire 1 \ inst6|cnt1[4]~41_combout $end
$var wire 1 ] inst6|cnt1[4]~42 $end
$var wire 1 ^ inst6|cnt1[5]~43_combout $end
$var wire 1 _ inst6|cnt1[5]~44 $end
$var wire 1 ` inst6|cnt1[6]~45_combout $end
$var wire 1 a inst6|cnt1[6]~46 $end
$var wire 1 b inst6|cnt1[7]~47_combout $end
$var wire 1 c inst6|cnt1[7]~48 $end
$var wire 1 d inst6|cnt1[8]~49_combout $end
$var wire 1 e inst6|cnt1[8]~50 $end
$var wire 1 f inst6|cnt1[9]~51_combout $end
$var wire 1 g inst6|cnt1[9]~52 $end
$var wire 1 h inst6|cnt1[10]~53_combout $end
$var wire 1 i inst6|cnt1[10]~54 $end
$var wire 1 j inst6|cnt1[11]~55_combout $end
$var wire 1 k inst6|cnt1[11]~56 $end
$var wire 1 l inst6|cnt1[12]~57_combout $end
$var wire 1 m inst6|cnt1[12]~58 $end
$var wire 1 n inst6|cnt1[13]~59_combout $end
$var wire 1 o inst6|cnt1[13]~60 $end
$var wire 1 p inst6|cnt1[14]~61_combout $end
$var wire 1 q inst6|cnt1[14]~62 $end
$var wire 1 r inst6|cnt1[15]~63_combout $end
$var wire 1 s inst6|cnt1[15]~64 $end
$var wire 1 t inst6|cnt1[16]~65_combout $end
$var wire 1 u inst6|cnt1[16]~66 $end
$var wire 1 v inst6|cnt1[17]~67_combout $end
$var wire 1 w inst6|cnt1[17]~68 $end
$var wire 1 x inst6|cnt1[18]~69_combout $end
$var wire 1 y inst6|cnt1[18]~70 $end
$var wire 1 z inst6|cnt1[19]~71_combout $end
$var wire 1 { inst6|cnt1[19]~72 $end
$var wire 1 | inst6|cnt1[20]~73_combout $end
$var wire 1 } inst6|cnt1[20]~74 $end
$var wire 1 ~ inst6|cnt1[21]~75_combout $end
$var wire 1 !! inst6|cnt1[21]~76 $end
$var wire 1 "! inst6|cnt1[22]~77_combout $end
$var wire 1 #! inst6|cnt1[22]~78 $end
$var wire 1 $! inst6|cnt1[23]~79_combout $end
$var wire 1 %! inst6|cnt1[23]~80 $end
$var wire 1 &! inst6|cnt1[24]~81_combout $end
$var wire 1 '! inst6|cnt1[24]~82 $end
$var wire 1 (! inst6|cnt1[25]~83_combout $end
$var wire 1 )! inst6|cnt1[25]~84 $end
$var wire 1 *! inst6|cnt1[26]~85_combout $end
$var wire 1 +! inst6|cnt1[26]~86 $end
$var wire 1 ,! inst6|cnt1[27]~87_combout $end
$var wire 1 -! inst6|cnt1[27]~88 $end
$var wire 1 .! inst6|cnt1[28]~89_combout $end
$var wire 1 /! inst6|cnt1[28]~90 $end
$var wire 1 0! inst6|cnt1[29]~91_combout $end
$var wire 1 1! inst6|cnt1[29]~92 $end
$var wire 1 2! inst6|cnt1[30]~93_combout $end
$var wire 1 3! inst6|cnt1[30]~94 $end
$var wire 1 4! inst6|cnt1[31]~95_combout $end
$var wire 1 5! inst6|clk_1hz~q $end
$var wire 1 6! inst24|inst|inst9~combout $end
$var wire 1 7! inst6|LessThan3~0_combout $end
$var wire 1 8! inst6|LessThan3~1_combout $end
$var wire 1 9! inst6|LessThan3~2_combout $end
$var wire 1 :! inst6|LessThan3~3_combout $end
$var wire 1 ;! inst6|LessThan3~4_combout $end
$var wire 1 <! inst6|LessThan3~5_combout $end
$var wire 1 =! inst6|LessThan3~6_combout $end
$var wire 1 >! inst6|LessThan3~7_combout $end
$var wire 1 ?! inst6|LessThan3~8_combout $end
$var wire 1 @! inst6|LessThan3~9_combout $end
$var wire 1 A! inst6|LessThan3~10_combout $end
$var wire 1 B! inst6|clk_1hz~0_combout $end
$var wire 1 C! inst6|cnt1[18]~34_combout $end
$var wire 1 D! clk~input_o $end
$var wire 1 E! clk~inputclkctrl_outclk $end
$var wire 1 F! out_min[7]~output_o $end
$var wire 1 G! out_min[6]~output_o $end
$var wire 1 H! out_min[5]~output_o $end
$var wire 1 I! out_min[4]~output_o $end
$var wire 1 J! out_min[3]~output_o $end
$var wire 1 K! out_min[2]~output_o $end
$var wire 1 L! out_min[1]~output_o $end
$var wire 1 M! out_min[0]~output_o $end
$var wire 1 N! out_ms[7]~output_o $end
$var wire 1 O! out_ms[6]~output_o $end
$var wire 1 P! out_ms[5]~output_o $end
$var wire 1 Q! out_ms[4]~output_o $end
$var wire 1 R! out_ms[3]~output_o $end
$var wire 1 S! out_ms[2]~output_o $end
$var wire 1 T! out_ms[1]~output_o $end
$var wire 1 U! out_ms[0]~output_o $end
$var wire 1 V! out_num[7]~output_o $end
$var wire 1 W! out_num[6]~output_o $end
$var wire 1 X! out_num[5]~output_o $end
$var wire 1 Y! out_num[4]~output_o $end
$var wire 1 Z! out_num[3]~output_o $end
$var wire 1 [! out_num[2]~output_o $end
$var wire 1 \! out_num[1]~output_o $end
$var wire 1 ]! out_num[0]~output_o $end
$var wire 1 ^! out_s[7]~output_o $end
$var wire 1 _! out_s[6]~output_o $end
$var wire 1 `! out_s[5]~output_o $end
$var wire 1 a! out_s[4]~output_o $end
$var wire 1 b! out_s[3]~output_o $end
$var wire 1 c! out_s[2]~output_o $end
$var wire 1 d! out_s[1]~output_o $end
$var wire 1 e! out_s[0]~output_o $end
$var wire 1 f! out_sel[7]~output_o $end
$var wire 1 g! out_sel[6]~output_o $end
$var wire 1 h! out_sel[5]~output_o $end
$var wire 1 i! out_sel[4]~output_o $end
$var wire 1 j! out_sel[3]~output_o $end
$var wire 1 k! out_sel[2]~output_o $end
$var wire 1 l! out_sel[1]~output_o $end
$var wire 1 m! out_sel[0]~output_o $end
$var wire 1 n! inst24|inst|inst2~combout $end
$var wire 1 o! inst24|inst|inst|11~combout $end
$var wire 1 p! clear~input_o $end
$var wire 1 q! inst24|inst|inst|7~q $end
$var wire 1 r! inst24|inst|inst|6~0_combout $end
$var wire 1 s! inst24|inst|inst|6~q $end
$var wire 1 t! inst24|inst|inst|12~combout $end
$var wire 1 u! inst24|inst|inst|8~q $end
$var wire 1 v! inst24|inst|inst|13~0_combout $end
$var wire 1 w! inst24|inst|inst|13~combout $end
$var wire 1 x! inst24|inst|inst|9~q $end
$var wire 1 y! inst24|inst|inst1|6~0_combout $end
$var wire 1 z! inst24|inst|inst1|6~q $end
$var wire 1 {! inst24|inst|inst2~0_combout $end
$var wire 1 |! inst24|inst|inst1|12~0_combout $end
$var wire 1 }! inst24|inst|inst1|8~q $end
$var wire 1 ~! inst24|inst|inst1|11~combout $end
$var wire 1 !" inst24|inst|inst1|7~q $end
$var wire 1 "" inst24|inst12|inst8~1_combout $end
$var wire 1 #" pause~input_o $end
$var wire 1 $" inst24|inst12|inst8~0_combout $end
$var wire 1 %" inst24|inst12|inst8~combout $end
$var wire 1 &" inst24|inst12|inst8~clkctrl_outclk $end
$var wire 1 '" inst24|inst12|inst|6~0_combout $end
$var wire 1 (" inst24|inst12|inst|6~q $end
$var wire 1 )" inst24|inst12|inst2~combout $end
$var wire 1 *" inst24|inst12|inst|11~combout $end
$var wire 1 +" inst24|inst12|inst|7~q $end
$var wire 1 ," inst24|inst12|inst|12~combout $end
$var wire 1 -" inst24|inst12|inst|8~q $end
$var wire 1 ." inst24|inst12|inst|13~0_combout $end
$var wire 1 /" inst24|inst12|inst|13~combout $end
$var wire 1 0" inst24|inst12|inst|9~q $end
$var wire 1 1" inst24|inst12|inst1|6~0_combout $end
$var wire 1 2" inst24|inst12|inst1|6~q $end
$var wire 1 3" inst24|inst12|inst2~0_combout $end
$var wire 1 4" inst24|inst12|inst1|12~0_combout $end
$var wire 1 5" inst24|inst12|inst1|8~q $end
$var wire 1 6" inst24|inst12|inst1|11~combout $end
$var wire 1 7" inst24|inst12|inst1|7~q $end
$var wire 1 8" rst~input_o $end
$var wire 1 9" inst6|clk_1khz~0_combout $end
$var wire 1 :" inst6|clk_1khz~feeder_combout $end
$var wire 1 ;" inst6|clk_1khz~q $end
$var wire 1 <" inst24|inst11|inst9~combout $end
$var wire 1 =" inst24|inst11|inst9~clkctrl_outclk $end
$var wire 1 >" inst24|inst11|inst|6~0_combout $end
$var wire 1 ?" inst24|inst11|inst|6~q $end
$var wire 1 @" inst24|inst11|inst|11~combout $end
$var wire 1 A" inst24|inst11|inst|7~q $end
$var wire 1 B" inst24|inst11|inst|12~combout $end
$var wire 1 C" inst24|inst11|inst|8~q $end
$var wire 1 D" inst24|inst11|inst|13~0_combout $end
$var wire 1 E" inst24|inst11|inst|13~combout $end
$var wire 1 F" inst24|inst11|inst|9~q $end
$var wire 1 G" inst24|inst11|inst1|6~0_combout $end
$var wire 1 H" inst24|inst11|inst1|6~q $end
$var wire 1 I" inst24|inst11|inst3~0_combout $end
$var wire 1 J" inst24|inst11|inst3~combout $end
$var wire 1 K" inst24|inst11|inst1|11~combout $end
$var wire 1 L" inst24|inst11|inst1|7~q $end
$var wire 1 M" inst24|inst11|inst1|12~combout $end
$var wire 1 N" inst24|inst11|inst1|8~q $end
$var wire 1 O" inst24|inst11|inst1|13~0_combout $end
$var wire 1 P" inst24|inst11|inst1|13~1_combout $end
$var wire 1 Q" inst24|inst11|inst1|9~q $end
$var wire 1 R" inst24|inst11|inst2|10~combout $end
$var wire 1 S" inst24|inst11|inst2|6~q $end
$var wire 1 T" inst24|inst11|inst2|50~0_combout $end
$var wire 1 U" inst24|inst11|inst2|11~combout $end
$var wire 1 V" inst24|inst11|inst2|7~q $end
$var wire 1 W" inst24|inst11|inst2|13~0_combout $end
$var wire 1 X" inst24|inst11|inst2|13~1_combout $end
$var wire 1 Y" inst24|inst11|inst2|9~q $end
$var wire 1 Z" inst24|inst11|inst2|12~combout $end
$var wire 1 [" inst24|inst11|inst2|8~q $end
$var wire 1 \" inst5|state.011~q $end
$var wire 1 ]" inst5|state.100~q $end
$var wire 1 ^" inst5|state.101~q $end
$var wire 1 _" inst5|state.110~q $end
$var wire 1 `" inst5|state.111~q $end
$var wire 1 a" inst5|state.000~0_combout $end
$var wire 1 b" inst5|state.000~q $end
$var wire 1 c" inst5|state.001~0_combout $end
$var wire 1 d" inst5|state.001~q $end
$var wire 1 e" inst5|state.010~q $end
$var wire 1 f" inst5|Selector0~0_combout $end
$var wire 1 g" inst5|Selector0~1_combout $end
$var wire 1 h" inst5|Selector0~2_combout $end
$var wire 1 i" inst5|Selector1~2_combout $end
$var wire 1 j" inst5|Selector1~0_combout $end
$var wire 1 k" inst5|Selector1~1_combout $end
$var wire 1 l" inst5|Selector1~3_combout $end
$var wire 1 m" inst5|Selector3~2_combout $end
$var wire 1 n" inst5|Selector3~1_combout $end
$var wire 1 o" inst5|Selector3~0_combout $end
$var wire 1 p" inst5|Selector3~3_combout $end
$var wire 1 q" inst5|Selector2~1_combout $end
$var wire 1 r" inst5|Selector2~2_combout $end
$var wire 1 s" inst5|Selector2~0_combout $end
$var wire 1 t" inst5|Selector2~3_combout $end
$var wire 1 u" inst|WideOr0~0_combout $end
$var wire 1 v" inst|WideOr1~0_combout $end
$var wire 1 w" inst|WideOr2~0_combout $end
$var wire 1 x" inst|WideOr3~0_combout $end
$var wire 1 y" inst|WideOr4~0_combout $end
$var wire 1 z" inst|WideOr5~0_combout $end
$var wire 1 {" inst|WideOr6~0_combout $end
$var wire 1 |" inst6|clk_1khz~clkctrl_outclk $end
$var wire 1 }" inst4|outs[7]~0_combout $end
$var wire 1 ~" inst4|outs[6]~1_combout $end
$var wire 1 !# inst4|outs[5]~2_combout $end
$var wire 1 "# inst4|outs[4]~3_combout $end
$var wire 1 ## inst4|outs[3]~4_combout $end
$var wire 1 $# inst4|outs[2]~5_combout $end
$var wire 1 %# inst4|outs[1]~6_combout $end
$var wire 1 &# inst6|cnt1 [31] $end
$var wire 1 '# inst6|cnt1 [30] $end
$var wire 1 (# inst6|cnt1 [29] $end
$var wire 1 )# inst6|cnt1 [28] $end
$var wire 1 *# inst6|cnt1 [27] $end
$var wire 1 +# inst6|cnt1 [26] $end
$var wire 1 ,# inst6|cnt1 [25] $end
$var wire 1 -# inst6|cnt1 [24] $end
$var wire 1 .# inst6|cnt1 [23] $end
$var wire 1 /# inst6|cnt1 [22] $end
$var wire 1 0# inst6|cnt1 [21] $end
$var wire 1 1# inst6|cnt1 [20] $end
$var wire 1 2# inst6|cnt1 [19] $end
$var wire 1 3# inst6|cnt1 [18] $end
$var wire 1 4# inst6|cnt1 [17] $end
$var wire 1 5# inst6|cnt1 [16] $end
$var wire 1 6# inst6|cnt1 [15] $end
$var wire 1 7# inst6|cnt1 [14] $end
$var wire 1 8# inst6|cnt1 [13] $end
$var wire 1 9# inst6|cnt1 [12] $end
$var wire 1 :# inst6|cnt1 [11] $end
$var wire 1 ;# inst6|cnt1 [10] $end
$var wire 1 <# inst6|cnt1 [9] $end
$var wire 1 =# inst6|cnt1 [8] $end
$var wire 1 ># inst6|cnt1 [7] $end
$var wire 1 ?# inst6|cnt1 [6] $end
$var wire 1 @# inst6|cnt1 [5] $end
$var wire 1 A# inst6|cnt1 [4] $end
$var wire 1 B# inst6|cnt1 [3] $end
$var wire 1 C# inst6|cnt1 [2] $end
$var wire 1 D# inst6|cnt1 [1] $end
$var wire 1 E# inst6|cnt1 [0] $end
$var wire 1 F# inst5|outc [3] $end
$var wire 1 G# inst5|outc [2] $end
$var wire 1 H# inst5|outc [1] $end
$var wire 1 I# inst5|outc [0] $end
$var wire 1 J# inst4|outs [7] $end
$var wire 1 K# inst4|outs [6] $end
$var wire 1 L# inst4|outs [5] $end
$var wire 1 M# inst4|outs [4] $end
$var wire 1 N# inst4|outs [3] $end
$var wire 1 O# inst4|outs [2] $end
$var wire 1 P# inst4|outs [1] $end
$var wire 1 Q# inst4|outs [0] $end
$upscope $end
$upscope $end
$enddefinitions $end
#0
$dumpvars
0!
0"
0#
0$
0,
0+
0*
0)
0(
0'
0&
0%
04
03
02
01
00
0/
0.
0-
0<
0;
1:
19
18
17
16
15
0D
0C
0B
0A
0@
0?
0>
0=
0L
0K
0J
0I
0H
0G
0F
0E
xM
0N
1O
xP
1Q
1R
1S
1T
0U
0V
1W
0X
0Y
0Z
1[
0\
0]
0^
1_
0`
0a
0b
1c
0d
0e
0f
1g
0h
0i
0j
1k
0l
0m
0n
1o
0p
0q
0r
1s
0t
0u
0v
1w
0x
0y
0z
1{
0|
0}
0~
1!!
0"!
0#!
0$!
1%!
0&!
0'!
0(!
1)!
0*!
0+!
0,!
1-!
0.!
0/!
00!
11!
02!
03!
04!
05!
06!
17!
18!
19!
1:!
1;!
1<!
1=!
1>!
1?!
1@!
1A!
0B!
0C!
0D!
0E!
0F!
0G!
0H!
0I!
0J!
0K!
0L!
0M!
0N!
0O!
0P!
0Q!
0R!
0S!
0T!
0U!
1V!
1W!
1X!
1Y!
1Z!
1[!
0\!
0]!
0^!
0_!
0`!
0a!
0b!
0c!
0d!
0e!
0f!
0g!
0h!
0i!
0j!
0k!
0l!
0m!
0n!
0o!
0p!
0q!
1r!
0s!
0t!
0u!
0v!
0w!
0x!
0y!
0z!
0{!
0|!
0}!
0~!
0!"
0""
0#"
0$"
1%"
1&"
1'"
0("
0)"
0*"
0+"
0,"
0-"
0."
0/"
00"
01"
02"
03"
04"
05"
06"
07"
08"
19"
1:"
0;"
0<"
0="
1>"
0?"
0@"
0A"
0B"
0C"
0D"
0E"
0F"
0G"
0H"
0I"
0J"
0K"
0L"
0M"
0N"
0O"
0P"
0Q"
0R"
0S"
0T"
0U"
0V"
0W"
0X"
0Y"
0Z"
0["
0\"
0]"
0^"
0_"
0`"
1a"
0b"
1c"
0d"
0e"
0f"
0g"
0h"
0i"
0j"
0k"
0l"
0m"
0n"
0o"
0p"
1q"
0r"
1s"
0t"
0u"
0v"
0w"
0x"
0y"
0z"
0{"
0|"
1}"
1~"
1!#
1"#
1##
1$#
1%#
0E#
0D#
0C#
0B#
0A#
0@#
0?#
0>#
0=#
0<#
0;#
0:#
09#
08#
07#
06#
05#
04#
03#
02#
01#
00#
0/#
0.#
0-#
0,#
0+#
0*#
0)#
0(#
0'#
0&#
0I#
0H#
0G#
0F#
0Q#
0P#
0O#
0N#
0M#
0L#
0K#
0J#
$end
#12500
1"
1D!
1E!
0M
1;"
1E#
1|"
1<"
09"
1U
0T
1="
0:"
1V
1?"
1d"
1b"
1P#
1O#
1N#
1M#
1L#
1K#
1J#
1@"
0>"
0%#
0s"
1r"
0c"
1l!
1k!
1j!
1i!
1h!
1g!
1f!
1K
1J
1I
1H
1G
1F
1E
#25000
0"
0D!
0E!
1M
#37500
1"
1D!
1E!
0M
0;"
1D#
0E#
0|"
0<"
19"
0W
0V
0U
1T
0="
1:"
1X
1W
1V
0X
#50000
0"
0D!
0E!
1M
#62500
1"
1D!
1E!
0M
1;"
1E#
1|"
1<"
09"
1U
0T
1="
0:"
0W
0V
1X
1A"
0?"
1e"
0d"
1Q#
0P#
1>"
0$#
1h"
1%#
1s"
1m!
0l!
1L
0K
1t"
#75000
0"
0D!
0E!
1M
#87500
1"
1D!
1E!
0M
0;"
1C#
0D#
0E#
0|"
0<"
19"
1Y
0X
1W
1V
0U
1T
0="
1:"
1Z
0Y
1X
0V
0Z
#100000
0"
0D!
0E!
1M
#112500
1"
1D!
1E!
0M
1;"
1E#
1|"
1<"
09"
1U
0T
1="
0:"
1V
1?"
1H#
1F#
0e"
1\"
1P#
0O#
1B"
0@"
0>"
1z"
1y"
1x"
1w"
1v"
1u"
1$#
0h"
0##
0s"
1l!
0k!
1K
0J
1{"
0t"
0[!
0Z!
0Y!
0X!
0W!
0V!
1\!
0:
09
08
07
06
05
1;
#125000
0"
0D!
0E!
1M
#137500
1"
1D!
1E!
0M
0;"
1D#
0E#
0|"
0<"
19"
0W
0V
0U
1T
0="
1:"
1Y
0X
1W
1V
1Z
0Y
1X
0Z
#150000
0"
0D!
0E!
1M
#162500
1"
1D!
1E!
0M
1;"
1E#
1|"
1<"
09"
07!
1U
0T
1="
0:"
0;!
0W
0V
0A!
1Y
0X
1C!
1B!
1Z
1C"
0A"
0?"
0H#
0F#
1]"
0\"
1O#
0N#
1>"
0z"
0y"
0x"
0w"
0v"
0u"
0"#
0q"
1##
1s"
1k!
0j!
1J
0I
0{"
1[!
1Z!
1Y!
1X!
1W!
1V!
0\!
1:
19
18
17
16
15
0;
#175000
0"
0D!
0E!
1M
#187500
1"
1D!
1E!
0M
15!
0;"
0C#
0D#
0E#
0|"
0B!
16!
0<"
19"
17!
0Y
1X
1W
1V
0U
1T
0="
1:"
1;!
0Z
0X
0V
1A!
0C!
1B!
1s!
1$"
0r!
1o!
1e!
1D
0%"
0&"
#200000
0"
0D!
0E!
1M
#212500
1"
1D!
1E!
0M
1;"
1E#
1|"
1<"
09"
1U
0T
1="
0:"
1V
1?"
1^"
0]"
1N#
0M#
1@"
0>"
0!#
1h"
1"#
1q"
1j!
0i!
1I
0H
1t"
#225000
0"
0D!
0E!
1M
#237500
1"
1D!
1E!
0M
0;"
1D#
0E#
0|"
0<"
19"
0W
0V
0U
1T
0="
1:"
1X
1W
1V
0X
#250000
0"
0D!
0E!
1M
#262500
1"
1D!
1E!
0M
1;"
1E#
1|"
1<"
09"
1U
0T
1="
0:"
0W
0V
1X
1A"
0?"
1H#
1F#
1_"
0^"
1M#
0L#
1D"
1>"
1z"
1y"
1x"
1w"
1v"
1u"
0~"
0q"
1!#
0h"
1i!
0h!
1H
0G
1{"
0t"
0[!
0Z!
0Y!
0X!
0W!
0V!
1\!
0:
09
08
07
06
05
1;
#275000
0"
0D!
0E!
1M
#287500
1"
1D!
1E!
0M
0;"
1C#
0D#
0E#
0|"
0<"
19"
1Y
0X
1W
1V
0U
1T
0="
1:"
1Z
0Y
1X
0V
0Z
#300000
0"
0D!
0E!
1M
#312500
1"
1D!
1E!
0M
1;"
1E#
1|"
1<"
09"
1U
0T
1="
0:"
1V
1?"
0H#
0F#
1`"
0_"
1L#
0K#
1E"
0B"
0@"
0>"
0z"
0y"
0x"
0w"
0v"
0u"
0}"
0r"
0a"
1~"
1q"
1h!
0g!
1G
0F
0{"
1[!
1Z!
1Y!
1X!
1W!
1V!
0\!
1:
19
18
17
16
15
0;
#325000
0"
0D!
0E!
1M
#337500
1"
1D!
1E!
0M
0;"
1D#
0E#
0|"
0<"
19"
0W
0V
0U
1T
0="
1:"
1Y
0X
1W
1V
1Z
0Y
1X
0Z
#350000
0"
0D!
0E!
1M
#362500
1"
1D!
1E!
0M
1;"
1E#
1|"
1<"
09"
07!
1U
0T
1="
0:"
0;!
0W
0V
0A!
1Y
0X
1C!
0B!
1Z
1F"
0C"
0A"
0?"
0b"
0`"
1K#
0J#
0D"
1>"
1c"
1}"
1a"
1g!
0f!
1F
0E
#375000
0"
0D!
0E!
1M
#387500
1"
1D!
1E!
0M
05!
0;"
0C#
0D#
0E#
0|"
1B!
06!
0<"
19"
17!
0Y
1X
1W
1V
0U
1T
0="
1:"
1;!
0Z
0X
0V
1A!
0C!
0B!
#400000
0"
0D!
0E!
1M
#412500
1"
1D!
1E!
0M
1;"
1E#
1|"
1<"
09"
1U
0T
1="
0:"
1V
1?"
1d"
1b"
0Q#
1J#
1G"
0E"
0>"
0%#
0s"
1r"
0c"
0m!
1f!
0L
1E
#425000
0"
0D!
0E!
1M
#437500
1"
1D!
1E!
0M
0;"
1D#
0E#
0|"
0<"
19"
0W
0V
0U
1T
0="
1:"
1X
1W
1V
0X
#450000
0"
0D!
0E!
1M
#462500
1"
1D!
1E!
0M
1;"
1E#
1|"
1<"
09"
1U
0T
1="
0:"
0W
0V
1X
0F"
0?"
1e"
0d"
1H"
1Q#
0P#
1>"
0$#
1h"
1%#
1s"
1U!
1m!
0l!
14
1L
0K
1t"
#475000
0"
0D!
0E!
1M
#487500
1"
1D!
1E!
0M
0;"
1C#
0D#
0E#
0|"
0<"
19"
1Y
0X
1W
1V
0U
1T
0="
1:"
1Z
0Y
1X
0V
0Z
#500000
0"
0D!
0E!
1M
#512500
1"
1D!
1E!
0M
1;"
1E#
1|"
1<"
09"
1U
0T
1="
0:"
1V
1?"
1H#
1F#
0e"
1\"
1P#
0O#
1@"
0>"
1z"
1y"
1x"
1w"
1v"
1u"
1$#
0h"
0##
0s"
1n"
1l!
0k!
1K
0J
1{"
0t"
1p"
0[!
0Z!
0Y!
0X!
0W!
0V!
1\!
0:
09
08
07
06
05
1;
#525000
0"
0D!
0E!
1M
#537500
1"
1D!
1E!
0M
0;"
1D#
0E#
0|"
0<"
19"
0W
0V
0U
1T
0="
1:"
1Y
0X
1W
1V
1Z
0Y
1X
0Z
#550000
0"
0D!
0E!
1M
#562500
1"
1D!
1E!
0M
1;"
1E#
1|"
1<"
09"
07!
1U
0T
1="
0:"
0;!
0W
0V
0A!
1Y
0X
1C!
1B!
1Z
1A"
0?"
0H#
1I#
0F#
1]"
0\"
1O#
0N#
1>"
0w"
0v"
0"#
0q"
0n"
1##
1s"
1k!
0j!
1J
0I
0{"
0p"
1X!
1W!
0\!
17
16
0;
#575000
0"
0D!
0E!
1M
#587500
1"
1D!
1E!
0M
15!
0;"
0C#
0D#
0E#
0|"
0B!
16!
0<"
19"
17!
0Y
1X
1W
1V
0U
1T
0="
1:"
1;!
0Z
0X
0V
1A!
0C!
1B!
0s!
1q!
0$"
1r!
1""
0e!
1d!
0D
1C
#600000
0"
0D!
0E!
1M
#612500
1"
1D!
1E!
0M
1;"
1E#
1|"
1<"
09"
1U
0T
1="
0:"
1V
1?"
0I#
1^"
0]"
1N#
0M#
1B"
0@"
0>"
0z"
0y"
0x"
0u"
0!#
1h"
1"#
1q"
1j!
0i!
1I
0H
1t"
1[!
1Z!
1Y!
1V!
1:
19
18
15
#625000
0"
0D!
0E!
1M
#637500
1"
1D!
1E!
0M
0;"
1D#
0E#
0|"
0<"
19"
0W
0V
0U
1T
0="
1:"
1X
1W
1V
0X
#650000
0"
0D!
0E!
1M
#662500
1"
1D!
1E!
0M
1;"
1E#
1|"
1<"
09"
1U
0T
1="
0:"
0W
0V
1X
1C"
0A"
0?"
1H#
1F#
1_"
0^"
1M#
0L#
1>"
1z"
1y"
1x"
1w"
1v"
1u"
0~"
0q"
1!#
0h"
1i!
0h!
1H
0G
1{"
0t"
0[!
0Z!
0Y!
0X!
0W!
0V!
1\!
0:
09
08
07
06
05
1;
#675000
0"
0D!
0E!
1M
#687500
1"
1D!
1E!
0M
0;"
1C#
0D#
0E#
0|"
0<"
19"
1Y
0X
1W
1V
0U
1T
0="
1:"
1Z
0Y
1X
0V
0Z
#700000
0"
0D!
0E!
1M
#712500
1"
1D!
1E!
0M
1;"
1E#
1|"
1<"
09"
1U
0T
1="
0:"
1V
1?"
0H#
0F#
1`"
0_"
1L#
0K#
1@"
0>"
0z"
0y"
0x"
0w"
0v"
0u"
0}"
0r"
0a"
1~"
1q"
1h!
0g!
1G
0F
0{"
1[!
1Z!
1Y!
1X!
1W!
1V!
0\!
1:
19
18
17
16
15
0;
#725000
0"
0D!
0E!
1M
#737500
1"
1D!
1E!
0M
0;"
1D#
0E#
0|"
0<"
19"
0W
0V
0U
1T
0="
1:"
1Y
0X
1W
1V
1Z
0Y
1X
0Z
#750000
0"
0D!
0E!
1M
#762500
1"
1D!
1E!
0M
1;"
1E#
1|"
1<"
09"
07!
1U
0T
1="
0:"
0;!
0W
0V
0A!
1Y
0X
1C!
0B!
1Z
1A"
0?"
0b"
0`"
1K#
0J#
1D"
1>"
1o"
1c"
1}"
1a"
1g!
0f!
1F
0E
1p"
#775000
0"
0D!
0E!
1M
#787500
1"
1D!
1E!
0M
05!
0;"
0C#
0D#
0E#
0|"
1B!
06!
0<"
19"
17!
0Y
1X
1W
1V
0U
1T
0="
1:"
1;!
0Z
0X
0V
1A!
0C!
0B!
#800000
0"
0D!
0E!
1M
#812500
1"
1D!
1E!
0M
1;"
1E#
1|"
1<"
09"
1U
0T
1="
0:"
1V
1?"
1I#
1d"
1b"
0Q#
1J#
1E"
0B"
0@"
0>"
1z"
1y"
1x"
1u"
0%#
0s"
0o"
1r"
0c"
0m!
1f!
0L
1E
0p"
0[!
0Z!
0Y!
0V!
0:
09
08
05
#825000
0"
0D!
0E!
1M
#837500
1"
1D!
1E!
0M
0;"
1D#
0E#
0|"
0<"
19"
0W
0V
0U
1T
0="
1:"
1X
1W
1V
0X
#850000
0"
0D!
0E!
1M
#862500
1"
1D!
1E!
0M
1;"
1E#
1|"
1<"
09"
1U
0T
1="
0:"
0W
0V
1X
1F"
0C"
0A"
0?"
0I#
1e"
0d"
1Q#
0P#
0D"
1>"
0z"
0y"
0x"
0u"
0$#
1h"
1%#
1s"
1m!
0l!
1L
0K
1t"
1[!
1Z!
1Y!
1V!
1:
19
18
15
#875000
0"
0D!
0E!
1M
#887500
1"
1D!
1E!
0M
0;"
1C#
0D#
0E#
0|"
0<"
19"
1Y
0X
1W
1V
0U
1T
0="
1:"
1Z
0Y
1X
0V
0Z
#900000
0"
0D!
0E!
1M
#912500
1"
1D!
1E!
0M
1;"
1E#
1|"
1<"
09"
1U
0T
1="
0:"
1V
1?"
1H#
1F#
0e"
1\"
1P#
0O#
1I"
0G"
0E"
0>"
1z"
1y"
1x"
1w"
1v"
1u"
1$#
0h"
0##
1l!
0k!
1K
0J
1{"
1K"
0[!
0Z!
0Y!
0X!
0W!
0V!
1\!
0:
09
08
07
06
05
1;
#925000
0"
0D!
0E!
1M
