eleventhproject-00/simulation/qsim/Eleventhproject.msim.vcd
$comment
	File created using the following command:
		vcd file Eleventhproject.msim.vcd -direction
$end
$date
	Thu Dec 14 16:33:34 2017
$end
$version
	ModelSim Version 10.1d
$end
$timescale
	1ps
$end
$scope module Eleventh_vlg_vec_tst $end
$var reg 1 ! clk $end
$var reg 4 " SWC [3:0] $end
$var wire 1 # out_num [7] $end
$var wire 1 $ out_num [6] $end
$var wire 1 % out_num [5] $end
$var wire 1 & out_num [4] $end
$var wire 1 ' out_num [3] $end
$var wire 1 ( out_num [2] $end
$var wire 1 ) out_num [1] $end
$var wire 1 * out_num [0] $end
$var wire 1 + sel $end
$var wire 1 , SWR [3] $end
$var wire 1 - SWR [2] $end
$var wire 1 . SWR [1] $end
$var wire 1 / SWR [0] $end
$var wire 1 0 sampler $end
$scope module i1 $end
$var wire 1 1 gnd $end
$var wire 1 2 vcc $end
$var wire 1 3 unknown $end
$var tri1 1 4 devclrn $end
$var tri1 1 5 devpor $end
$var tri1 1 6 devoe $end
$var wire 1 7 clk~input_o $end
$var wire 1 8 SWC[0]~input_o $end
$var wire 1 9 clk~inputclkctrl_outclk $end
$var wire 1 : sel~output_o $end
$var wire 1 ; out_num[7]~output_o $end
$var wire 1 < out_num[6]~output_o $end
$var wire 1 = out_num[5]~output_o $end
$var wire 1 > out_num[4]~output_o $end
$var wire 1 ? out_num[3]~output_o $end
$var wire 1 @ out_num[2]~output_o $end
$var wire 1 A out_num[1]~output_o $end
$var wire 1 B out_num[0]~output_o $end
$var wire 1 C SWR[3]~output_o $end
$var wire 1 D SWR[2]~output_o $end
$var wire 1 E SWR[1]~output_o $end
$var wire 1 F SWR[0]~output_o $end
$var wire 1 G inst|Decoder0~2_combout $end
$var wire 1 H inst|Decoder0~3_combout $end
$var wire 1 I inst|Decoder0~1_combout $end
$var wire 1 J inst|Decoder0~0_combout $end
$var wire 1 K SWC[1]~input_o $end
$var wire 1 L SWC[3]~input_o $end
$var wire 1 M SWC[2]~input_o $end
$var wire 1 N inst|key[3]~0_combout $end
$var wire 1 O inst|WideOr0~0_combout $end
$var wire 1 P inst|key[3]~1_combout $end
$var wire 1 Q inst|key[3]~2_combout $end
$var wire 1 R inst|key[3]~3_combout $end
$var wire 1 S inst|Selector1~0_combout $end
$var wire 1 T inst|Selector3~0_combout $end
$var wire 1 U inst1|WideOr0~0_combout $end
$var wire 1 V inst1|WideOr1~0_combout $end
$var wire 1 W inst1|WideOr2~0_combout $end
$var wire 1 X inst1|WideOr3~0_combout $end
$var wire 1 Y inst1|WideOr4~0_combout $end
$var wire 1 Z inst1|WideOr5~0_combout $end
$var wire 1 [ inst1|WideOr6~0_combout $end
$var wire 1 \ inst|key [3] $end
$var wire 1 ] inst|key [2] $end
$var wire 1 ^ inst|key [1] $end
$var wire 1 _ inst|key [0] $end
$var wire 1 ` inst|SWR [3] $end
$var wire 1 a inst|SWR [2] $end
$var wire 1 b inst|SWR [1] $end
$var wire 1 c inst|SWR [0] $end
$upscope $end
$upscope $end
$enddefinitions $end
#0
$dumpvars
0!
b1110 "
0*
0)
1(
1'
1&
1%
1$
1#
0+
0/
0.
0-
0,
x0
01
12
x3
14
15
16
07
08
09
0:
1;
1<
1=
1>
1?
1@
0A
0B
0C
0D
0E
0F
1G
1H
1I
1J
1K
1L
1M
0N
0O
1P
0Q
0R
1S
0T
0U
0V
0W
0X
0Y
0Z
0[
0_
0^
0]
0\
0c
0b
0a
0`
$end
#25000
1!
17
19
00
1`
1b
1a
0S
0P
1O
0J
0H
1C
1E
1D
1,
1.
1-
1Q
#50000
b1100 "
b1101 "
0!
18
0K
07
09
10
1T
#75000
1!
17
19
00
1_
1c
0b
1Z
1Y
1X
1U
1H
0G
1S
1F
0E
1/
0.
0@
0?
0>
0;
0(
0'
0&
0#
#100000
b1001 "
b1011 "
0!
1K
0M
07
09
10
0T
1R
#125000
1!
17
19
00
0_
1]
1^
1b
0a
0Z
0Y
0X
1V
0U
0S
0I
1G
1J
1E
0D
1.
0-
1[
1@
1?
1>
0<
1;
1A
1(
1'
1&
0$
1#
1)
#150000
b11 "
b111 "
0!
1M
0L
07
09
10
1T
#175000
1!
17
19
00
1_
0]
1\
0`
1a
1Z
1Y
1X
1W
1U
1S
0O
1I
0C
1D
0,
1-
0[
0@
0?
0>
0=
0;
0A
0(
0'
0&
0%
0#
0)
#200000
b110 "
b1110 "
0!
08
1L
07
09
10
0T
0R
#225000
1!
17
19
00
0_
1]
0^
0c
1`
1O
0H
0S
0J
0F
1C
0/
1,
#250000
b1100 "
b1101 "
0!
18
0K
07
09
10
1T
#275000
1!
17
19
00
1_
0]
0\
1c
0b
0W
0V
1H
0G
1S
1F
0E
1/
0.
1=
1<
1%
1$
#300000
b1001 "
b1011 "
0!
1K
0M
07
09
10
0T
1R
#325000
1!
17
19
00
0_
1]
1^
1b
0a
0Z
0Y
0X
1V
0U
0S
0I
1G
1J
1E
0D
1.
0-
1[
1@
1?
1>
0<
1;
1A
1(
1'
1&
0$
1#
1)
#350000
b11 "
b111 "
0!
1M
0L
07
09
10
1T
#375000
1!
17
19
00
1_
0]
1\
0`
1a
1Z
1Y
1X
1W
1U
1S
0O
1I
0C
1D
0,
1-
0[
0@
0?
0>
0=
0;
0A
0(
0'
0&
0%
0#
0)
#400000
b110 "
b1110 "
0!
08
1L
07
09
10
0T
0R
#425000
1!
17
19
00
0_
1]
0^
0c
1`
1O
0H
0S
0J
0F
1C
0/
1,
#450000
b1100 "
b1101 "
0!
18
0K
07
09
10
1T
#475000
1!
17
19
00
1_
0]
0\
1c
0b
0W
0V
1H
0G
1S
1F
0E
1/
0.
1=
1<
1%
1$
#500000
b1001 "
b1011 "
0!
1K
0M
07
09
10
0T
1R
#525000
1!
17
19
00
0_
1]
1^
1b
0a
0Z
0Y
0X
1V
0U
0S
0I
1G
1J
1E
0D
1.
0-
1[
1@
1?
1>
0<
1;
1A
1(
1'
1&
0$
1#
1)
#550000
b11 "
b111 "
0!
1M
0L
07
09
10
1T
#575000
1!
17
19
00
1_
0]
1\
0`
1a
1Z
1Y
1X
1W
1U
1S
0O
1I
0C
1D
0,
1-
0[
0@
0?
0>
0=
0;
0A
0(
0'
0&
0%
0#
0)
#600000
b110 "
b1110 "
0!
08
1L
07
09
10
0T
0R
#625000
1!
17
19
00
0_
1]
0^
0c
1`
1O
0H
0S
0J
0F
1C
0/
1,
#650000
b1100 "
b1101 "
0!
18
0K
07
09
10
1T
#675000
1!
17
19
00
1_
0]
0\
1c
0b
0W
0V
1H
0G
1S
1F
0E
1/
0.
1=
1<
1%
1$
#700000
b1001 "
b1011 "
0!
1K
0M
07
09
10
0T
1R
#725000
1!
17
19
00
0_
1]
1^
1b
0a
0Z
0Y
0X
1V
0U
0S
0I
1G
1J
1E
0D
1.
0-
1[
1@
1?
1>
0<
1;
1A
1(
1'
1&
0$
1#
1)
#750000
b11 "
b111 "
0!
1M
0L
07
09
10
1T
#775000
1!
17
19
00
1_
0]
1\
0`
1a
1Z
1Y
1X
1W
1U
1S
0O
1I
0C
1D
0,
1-
0[
0@
0?
0>
0=
0;
0A
0(
0'
0&
0%
0#
0)
#800000
b110 "
b1110 "
0!
08
1L
07
09
10
0T
0R
#825000
1!
17
19
00
0_
1]
0^
0c
1`
1O
0H
0S
0J
0F
1C
0/
1,
#850000
b1100 "
b1101 "
0!
18
0K
07
09
10
1T
#875000
1!
17
19
00
1_
0]
0\
1c
0b
0W
0V
1H
0G
1S
1F
0E
1/
0.
1=
1<
1%
1$
#900000
b1001 "
b1011 "
0!
1K
0M
07
09
10
0T
1R
#925000
1!
17
19
00
0_
1]
1^
1b
0a
0Z
0Y
0X
1V
0U
0S
0I
1G
1J
1E
0D
1.
0-
1[
1@
1?
1>
0<
1;
1A
1(
1'
1&
0$
1#
1)
#950000
b11 "
b111 "
0!
1M
0L
07
09
10
1T
#975000
1!
17
19
00
1_
0]
1\
0`
1a
1Z
1Y
1X
1W
1U
1S
0O
1I
0C
1D
0,
1-
0[
0@
0?
0>
0=
0;
0A
0(
0'
0&
0%
0#
0)
#1000000
b110 "
b1110 "
0!
08
1L
07
09
10
0T
0R
#1025000
1!
17
19
00
0_
1]
0^
0c
1`
1O
0H
0S
0J
0F
1C
0/
1,
#1050000
b1100 "
b1101 "
0!
18
0K
07
09
10
1T
#1075000
1!
17
19
00
1_
0]
0\
1c
0b
0W
0V
1H
0G
1S
1F
0E
1/
0.
1=
1<
1%
1$
#1100000
b1001 "
b1011 "
0!
1K
0M
07
09
10
0T
1R
#1125000
1!
17
19
00
0_
1]
1^
1b
0a
0Z
0Y
0X
1V
0U
0S
0I
1G
1J
1E
0D
1.
0-
1[
1@
1?
1>
0<
1;
1A
1(
1'
1&
0$
1#
1)
#1150000
b11 "
b111 "
0!
1M
0L
07
09
10
1T
#1175000
1!
17
19
00
1_
0]
1\
0`
1a
1Z
1Y
1X
1W
1U
1S
0O
1I
0C
1D
0,
1-
0[
0@
0?
0>
0=
0;
0A
0(
0'
0&
0%
0#
0)
#1200000
b110 "
b1110 "
0!
08
1L
07
09
10
0T
0R
#1225000
1!
17
19
00
0_
1]
0^
0c
1`
1O
0H
0S
0J
0F
1C
0/
1,
#1250000
b1100 "
b1101 "
0!
18
0K
07
09
10
1T
#1275000
1!
17
19
00
1_
0]
0\
1c
0b
0W
0V
1H
0G
1S
1F
0E
1/
0.
1=
1<
1%
1$
#1300000
b1001 "
b1011 "
0!
1K
0M
07
09
10
0T
1R
#1325000
1!
17
19
00
0_
1]
1^
1b
0a
0Z
0Y
0X
1V
0U
0S
0I
1G
1J
1E
0D
1.
0-
1[
1@
1?
1>
0<
1;
1A
1(
1'
1&
0$
1#
1)
#1350000
b11 "
b111 "
0!
1M
0L
07
09
10
1T
#1375000
1!
17
19
00
1_
0]
1\
0`
1a
1Z
1Y
1X
1W
1U
1S
0O
1I
0C
1D
0,
1-
0[
0@
0?
0>
0=
0;
0A
0(
0'
0&
0%
0#
0)
#1400000
b110 "
b1110 "
0!
08
1L
07
09
10
0T
0R
#1425000
1!
17
19
00
0_
1]
0^
0c
1`
1O
0H
0S
0J
0F
1C
0/
1,
#1450000
b1100 "
b1101 "
0!
18
0K
07
09
10
1T
#1475000
1!
17
19
00
1_
0]
0\
1c
0b
0W
0V
1H
0G
1S
1F
0E
1/
0.
1=
1<
1%
1$
#1500000
b1001 "
b1011 "
0!
1K
0M
07
09
10
0T
1R
#1525000
1!
17
19
00
0_
1]
1^
1b
0a
0Z
0Y
0X
1V
0U
0S
0I
1G
1J
1E
0D
1.
0-
1[
1@
1?
1>
0<
1;
1A
1(
1'
1&
0$
1#
1)
#1550000
b11 "
b111 "
0!
1M
0L
07
09
10
1T
#1575000
1!
17
19
00
1_
0]
1\
0`
1a
1Z
1Y
1X
1W
1U
1S
0O
1I
0C
1D
0,
1-
0[
0@
0?
0>
0=
0;
0A
0(
0'
0&
0%
0#
0)
#1600000
b110 "
b1110 "
0!
08
1L
07
09
10
0T
0R
#1625000
1!
17
19
00
0_
1]
0^
0c
1`
1O
0H
0S
0J
0F
1C
0/
1,
#1650000
b1100 "
b1101 "
0!
18
0K
07
09
10
1T
#1675000
1!
17
19
00
1_
0]
0\
1c
0b
0W
0V
1H
0G
1S
1F
0E
1/
0.
1=
1<
1%
1$
#1700000
b1001 "
b1011 "
0!
1K
0M
07
09
10
0T
1R
#1725000
1!
17
19
00
0_
1]
1^
1b
0a
0Z
0Y
0X
1V
0U
0S
0I
1G
1J
1E
0D
1.
0-
1[
1@
1?
1>
0<
1;
1A
1(
1'
1&
0$
1#
1)
#1750000
b11 "
b111 "
0!
1M
0L
07
09
10
1T
#1775000
1!
17
19
00
1_
0]
1\
0`
1a
1Z
1Y
1X
1W
1U
1S
0O
1I
0C
1D
0,
1-
0[
0@
0?
0>
0=
0;
0A
0(
0'
0&
0%
0#
0)
#1800000
b110 "
b1110 "
0!
08
1L
07
09
10
0T
0R
#1825000
1!
17
19
00
0_
1]
0^
0c
1`
1O
0H
0S
0J
0F
1C
0/
1,
#1850000
b1100 "
b1101 "
0!
18
0K
07
09
10
1T
#1875000
1!
17
19
00
1_
0]
0\
1c
0b
0W
0V
1H
0G
1S
1F
0E
1/
0.
1=
1<
1%
1$
#1900000
b1001 "
b1011 "
0!
1K
0M
07
09
10
0T
1R
#1925000
1!
17
19
00
0_
1]
1^
1b
0a
0Z
0Y
0X
1V
0U
0S
0I
1G
1J
1E
0D
1.
0-
1[
1@
1?
1>
0<
1;
1A
1(
1'
1&
0$
1#
1)
#1950000
b11 "
b111 "
0!
1M
0L
07
09
10
1T
#1975000
1!
17
19
00
1_
0]
1\
0`
1a
1Z
1Y
1X
1W
1U
1S
0O
1I
0C
1D
0,
1-
0[
0@
0?
0>
0=
0;
0A
0(
0'
0&
0%
0#
0)
