MathLogicTask3/simulation/qsim/Task3.msim.vcd
$comment
	File created using the following command:
		vcd file Task3.msim.vcd -direction
$end
$date
	Wed Dec 06 20:31:58 2017
$end
$version
	ModelSim Version 10.1d
$end
$timescale
	1ps
$end
$scope module Counter_2421_16071005_vlg_vec_tst $end
$var reg 1 ! clk $end
$var wire 1 " Q [3] $end
$var wire 1 # Q [2] $end
$var wire 1 $ Q [1] $end
$var wire 1 % Q [0] $end
$var wire 1 & z $end
$var wire 1 ' sampler $end
$scope module i1 $end
$var wire 1 ( gnd $end
$var wire 1 ) vcc $end
$var wire 1 * unknown $end
$var tri1 1 + devclrn $end
$var tri1 1 , devpor $end
$var tri1 1 - devoe $end
$var wire 1 . Q[0]~output_o $end
$var wire 1 / Q[1]~output_o $end
$var wire 1 0 Q[2]~output_o $end
$var wire 1 1 Q[3]~output_o $end
$var wire 1 2 z~output_o $end
$var wire 1 3 clk~input_o $end
$var wire 1 4 clk~inputclkctrl_outclk $end
$var wire 1 5 WideOr1~0_combout $end
$var wire 1 6 Q[2]~reg0_q $end
$var wire 1 7 WideOr2~0_combout $end
$var wire 1 8 Q[1]~reg0_q $end
$var wire 1 9 WideOr3~0_combout $end
$var wire 1 : Q[0]~reg0_q $end
$var wire 1 ; WideOr0~0_combout $end
$var wire 1 < Q[3]~reg0_q $end
$upscope $end
$upscope $end
$enddefinitions $end
#0
$dumpvars
0!
0%
0$
0#
0"
1&
x'
0(
1)
x*
1+
1,
1-
0.
0/
00
01
12
03
04
05
06
07
08
19
0:
0;
0<
$end
#5000
1!
13
14
0'
1:
09
17
1.
1%
#10000
0!
03
04
1'
#15000
1!
13
14
0'
0:
18
19
0.
1/
0%
1$
#20000
0!
03
04
1'
#25000
1!
13
14
0'
1:
09
07
15
1.
1%
#30000
0!
03
04
1'
#35000
1!
13
14
0'
0:
08
16
1;
19
17
05
0.
0/
10
0%
0$
1#
#40000
0!
03
04
1'
#45000
1!
13
14
0'
1<
1:
18
06
09
07
15
11
1.
1/
00
1"
1%
1$
0#
#50000
0!
03
04
1'
#55000
1!
13
14
0'
0:
08
16
19
0.
0/
10
0%
0$
1#
#60000
0!
03
04
1'
#65000
1!
13
14
0'
1:
09
17
1.
1%
#70000
0!
03
04
1'
#75000
1!
13
14
0'
0:
18
19
0.
1/
0%
1$
#80000
0!
03
04
1'
#85000
1!
13
14
0'
1:
0;
09
07
05
1.
1%
#90000
0!
03
04
1'
#95000
1!
13
14
0'
0<
0:
08
06
19
01
0.
0/
00
0"
0%
0$
0#
#100000
0!
03
04
1'
#105000
1!
13
14
0'
1:
09
17
1.
1%
#110000
0!
03
04
1'
#115000
1!
13
14
0'
0:
18
19
0.
1/
0%
1$
#120000
0!
03
04
1'
#125000
1!
13
14
0'
1:
09
07
15
1.
1%
#130000
0!
03
04
1'
#135000
1!
13
14
0'
0:
08
16
1;
19
17
05
0.
0/
10
0%
0$
1#
#140000
0!
03
04
1'
#145000
1!
13
14
0'
1<
1:
18
06
09
07
15
11
1.
1/
00
1"
1%
1$
0#
#150000
0!
03
04
1'
#155000
1!
13
14
0'
0:
08
16
19
0.
0/
10
0%
0$
1#
#160000
0!
03
04
1'
#165000
1!
13
14
0'
1:
09
17
1.
1%
#170000
0!
03
04
1'
#175000
1!
13
14
0'
0:
18
19
0.
1/
0%
1$
#180000
0!
03
04
1'
#185000
1!
13
14
0'
1:
0;
09
07
05
1.
1%
#190000
0!
03
04
1'
#195000
1!
13
14
0'
0<
0:
08
06
19
01
0.
0/
00
0"
0%
0$
0#
#200000
0!
03
04
1'
#205000
1!
13
14
0'
1:
09
17
1.
1%
#210000
0!
03
04
1'
#215000
1!
13
14
0'
0:
18
19
0.
1/
0%
1$
#220000
0!
03
04
1'
#225000
1!
13
14
0'
1:
09
07
15
1.
1%
#230000
0!
03
04
1'
#235000
1!
13
14
0'
0:
08
16
1;
19
17
05
0.
0/
10
0%
0$
1#
#240000
0!
03
04
1'
#245000
1!
13
14
0'
1<
1:
18
06
09
07
15
11
1.
1/
00
1"
1%
1$
0#
#250000
0!
03
04
1'
#255000
1!
13
14
0'
0:
08
16
19
0.
0/
10
0%
0$
1#
#260000
0!
03
04
1'
#265000
1!
13
14
0'
1:
09
17
1.
1%
#270000
0!
03
04
1'
#275000
1!
13
14
0'
0:
18
19
0.
1/
0%
1$
#280000
0!
03
04
1'
#285000
1!
13
14
0'
1:
0;
09
07
05
1.
1%
#290000
0!
03
04
1'
#295000
1!
13
14
0'
0<
0:
08
06
19
01
0.
0/
00
0"
0%
0$
0#
#300000
0!
03
04
1'
#305000
1!
13
14
0'
1:
09
17
1.
1%
#310000
0!
03
04
1'
#315000
1!
13
14
0'
0:
18
19
0.
1/
0%
1$
#320000
0!
03
04
1'
#325000
1!
13
14
0'
1:
09
07
15
1.
1%
#330000
0!
03
04
1'
#335000
1!
13
14
0'
0:
08
16
1;
19
17
05
0.
0/
10
0%
0$
1#
#340000
0!
03
04
1'
#345000
1!
13
14
0'
1<
1:
18
06
09
07
15
11
1.
1/
00
1"
1%
1$
0#
#350000
0!
03
04
1'
#355000
1!
13
14
0'
0:
08
16
19
0.
0/
10
0%
0$
1#
#360000
0!
03
04
1'
#365000
1!
13
14
0'
1:
09
17
1.
1%
#370000
0!
03
04
1'
#375000
1!
13
14
0'
0:
18
19
0.
1/
0%
1$
#380000
0!
03
04
1'
#385000
1!
13
14
0'
1:
0;
09
07
05
1.
1%
#390000
0!
03
04
1'
#395000
1!
13
14
0'
0<
0:
08
06
19
01
0.
0/
00
0"
0%
0$
0#
#400000
0!
03
04
1'
#405000
1!
13
14
0'
1:
09
17
1.
1%
#410000
0!
03
04
1'
#415000
1!
13
14
0'
0:
18
19
0.
1/
0%
1$
#420000
0!
03
04
1'
#425000
1!
13
14
0'
1:
09
07
15
1.
1%
#430000
0!
03
04
1'
#435000
1!
13
14
0'
0:
08
16
1;
19
17
05
0.
0/
10
0%
0$
1#
#440000
0!
03
04
1'
#445000
1!
13
14
0'
1<
1:
18
06
09
07
15
11
1.
1/
00
1"
1%
1$
0#
#450000
0!
03
04
1'
#455000
1!
13
14
0'
0:
08
16
19
0.
0/
10
0%
0$
1#
#460000
0!
03
04
1'
#465000
1!
13
14
0'
1:
09
17
1.
1%
#470000
0!
03
04
1'
#475000
1!
13
14
0'
0:
18
19
0.
1/
0%
1$
#480000
0!
03
04
1'
#485000
1!
13
14
0'
1:
0;
09
07
05
1.
1%
#490000
0!
03
04
1'
#495000
1!
13
14
0'
0<
0:
08
06
19
01
0.
0/
00
0"
0%
0$
0#
#500000
0!
03
04
1'
#505000
1!
13
14
0'
1:
09
17
1.
1%
#510000
0!
03
04
1'
#515000
1!
13
14
0'
0:
18
19
0.
1/
0%
1$
#520000
0!
03
04
1'
#525000
1!
13
14
0'
1:
09
07
15
1.
1%
#530000
0!
03
04
1'
#535000
1!
13
14
0'
0:
08
16
1;
19
17
05
0.
0/
10
0%
0$
1#
#540000
0!
03
04
1'
#545000
1!
13
14
0'
1<
1:
18
06
09
07
15
11
1.
1/
00
1"
1%
1$
0#
#550000
0!
03
04
1'
#555000
1!
13
14
0'
0:
08
16
19
0.
0/
10
0%
0$
1#
#560000
0!
03
04
1'
#565000
1!
13
14
0'
1:
09
17
1.
1%
#570000
0!
03
04
1'
#575000
1!
13
14
0'
0:
18
19
0.
1/
0%
1$
#580000
0!
03
04
1'
#585000
1!
13
14
0'
1:
0;
09
07
05
1.
1%
#590000
0!
03
04
1'
#595000
1!
13
14
0'
0<
0:
08
06
19
01
0.
0/
00
0"
0%
0$
0#
#600000
0!
03
04
1'
#605000
1!
13
14
0'
1:
09
17
1.
1%
#610000
0!
03
04
1'
#615000
1!
13
14
0'
0:
18
19
0.
1/
0%
1$
#620000
0!
03
04
1'
#625000
1!
13
14
0'
1:
09
07
15
1.
1%
#630000
0!
03
04
1'
#635000
1!
13
14
0'
0:
08
16
1;
19
17
05
0.
0/
10
0%
0$
1#
#640000
0!
03
04
1'
#645000
1!
13
14
0'
1<
1:
18
06
09
07
15
11
1.
1/
00
1"
1%
1$
0#
#650000
0!
03
04
1'
#655000
1!
13
14
0'
0:
08
16
19
0.
0/
10
0%
0$
1#
#660000
0!
03
04
1'
#665000
1!
13
14
0'
1:
09
17
1.
1%
#670000
0!
03
04
1'
#675000
1!
13
14
0'
0:
18
19
0.
1/
0%
1$
#680000
0!
03
04
1'
#685000
1!
13
14
0'
1:
0;
09
07
05
1.
1%
#690000
0!
03
04
1'
#695000
1!
13
14
0'
0<
0:
08
06
19
01
0.
0/
00
0"
0%
0$
0#
#700000
0!
03
04
1'
#705000
1!
13
14
0'
1:
09
17
1.
1%
#710000
0!
03
04
1'
#715000
1!
13
14
0'
0:
18
19
0.
1/
0%
1$
#720000
0!
03
04
1'
#725000
1!
13
14
0'
1:
09
07
15
1.
1%
#730000
0!
03
04
1'
#735000
1!
13
14
0'
0:
08
16
1;
19
17
05
0.
0/
10
0%
0$
1#
#740000
0!
03
04
1'
#745000
1!
13
14
0'
1<
1:
18
06
09
07
15
11
1.
1/
00
1"
1%
1$
0#
#750000
0!
03
04
1'
#755000
1!
13
14
0'
0:
08
16
19
0.
0/
10
0%
0$
1#
#760000
0!
03
04
1'
#765000
1!
13
14
0'
1:
09
17
1.
1%
#770000
0!
03
04
1'
#775000
1!
13
14
0'
0:
18
19
0.
1/
0%
1$
#780000
0!
03
04
1'
#785000
1!
13
14
0'
1:
0;
09
07
05
1.
1%
#790000
0!
03
04
1'
#795000
1!
13
14
0'
0<
0:
08
06
19
01
0.
0/
00
0"
0%
0$
0#
#800000
0!
03
04
1'
#805000
1!
13
14
0'
1:
09
17
1.
1%
#810000
0!
03
04
1'
#815000
1!
13
14
0'
0:
18
19
0.
1/
0%
1$
#820000
0!
03
04
1'
#825000
1!
13
14
0'
1:
09
07
15
1.
1%
#830000
0!
03
04
1'
#835000
1!
13
14
0'
0:
08
16
1;
19
17
05
0.
0/
10
0%
0$
1#
#840000
0!
03
04
1'
#845000
1!
13
14
0'
1<
1:
18
06
09
07
15
11
1.
1/
00
1"
1%
1$
0#
#850000
0!
03
04
1'
#855000
1!
13
14
0'
0:
08
16
19
0.
0/
10
0%
0$
1#
#860000
0!
03
04
1'
#865000
1!
13
14
0'
1:
09
17
1.
1%
#870000
0!
03
04
1'
#875000
1!
13
14
0'
0:
18
19
0.
1/
0%
1$
#880000
0!
03
04
1'
#885000
1!
13
14
0'
1:
0;
09
07
05
1.
1%
#890000
0!
03
04
1'
#895000
1!
13
14
0'
0<
0:
08
06
19
01
0.
0/
00
0"
0%
0$
0#
#900000
0!
03
04
1'
#905000
1!
13
14
0'
1:
09
17
1.
1%
#910000
0!
03
04
1'
#915000
1!
13
14
0'
0:
18
19
0.
1/
0%
1$
#920000
0!
03
04
1'
#925000
1!
13
14
0'
1:
09
07
15
1.
1%
#930000
0!
03
04
1'
#935000
1!
13
14
0'
0:
08
16
1;
19
17
05
0.
0/
10
0%
0$
1#
#940000
0!
03
04
1'
#945000
1!
13
14
0'
1<
1:
18
06
09
07
15
11
1.
1/
00
1"
1%
1$
0#
#950000
0!
03
04
1'
#955000
1!
13
14
0'
0:
08
16
19
0.
0/
10
0%
0$
1#
#960000
0!
03
04
1'
#965000
1!
13
14
0'
1:
09
17
1.
1%
#970000
0!
03
04
1'
#975000
1!
13
14
0'
0:
18
19
0.
1/
0%
1$
#980000
0!
03
04
1'
#985000
1!
13
14
0'
1:
0;
09
07
05
1.
1%
#990000
0!
03
04
1'
#995000
1!
13
14
0'
0<
0:
08
06
19
01
0.
0/
00
0"
0%
0$
0#
