SeventhProject/simulation/qsim/SeventhProject.msim.vcd
$comment
	File created using the following command:
		vcd file SeventhProject.msim.vcd -direction
$end
$date
	Wed Nov 15 21:13:09 2017
$end
$version
	ModelSim Version 10.1d
$end
$timescale
	1ps
$end
$scope module frequency_divider_vlg_vec_tst $end
$var reg 1 ! clk_50mhz $end
$var reg 1 " rst $end
$var wire 1 # clk_1hz $end
$var wire 1 $ clk_1khz $end
$var wire 1 % clk_10hz $end
$var wire 1 & clk_100hz $end
$var wire 1 ' sampler $end
$scope module i1 $end
$var wire 1 ( gnd $end
$var wire 1 ) vcc $end
$var wire 1 * unknown $end
$var tri1 1 + devclrn $end
$var tri1 1 , devpor $end
$var tri1 1 - devoe $end
$var wire 1 . cnt3[5]~43_combout $end
$var wire 1 / cnt3[13]~59_combout $end
$var wire 1 0 cnt3[15]~63_combout $end
$var wire 1 1 cnt3[19]~71_combout $end
$var wire 1 2 cnt3[22]~77_combout $end
$var wire 1 3 cnt3[27]~88 $end
$var wire 1 4 cnt3[28]~89_combout $end
$var wire 1 5 cnt3[28]~90 $end
$var wire 1 6 cnt3[29]~91_combout $end
$var wire 1 7 cnt3[29]~92 $end
$var wire 1 8 cnt3[30]~93_combout $end
$var wire 1 9 cnt3[30]~94 $end
$var wire 1 : cnt3[31]~95_combout $end
$var wire 1 ; cnt2[5]~43_combout $end
$var wire 1 < cnt2[6]~45_combout $end
$var wire 1 = cnt2[15]~63_combout $end
$var wire 1 > cnt2[22]~77_combout $end
$var wire 1 ? cnt2[27]~88 $end
$var wire 1 @ cnt2[28]~89_combout $end
$var wire 1 A cnt2[28]~90 $end
$var wire 1 B cnt2[29]~91_combout $end
$var wire 1 C cnt2[29]~92 $end
$var wire 1 D cnt2[30]~93_combout $end
$var wire 1 E cnt2[30]~94 $end
$var wire 1 F cnt2[31]~95_combout $end
$var wire 1 G cnt1[3]~39_combout $end
$var wire 1 H cnt1[5]~43_combout $end
$var wire 1 I cnt1[6]~45_combout $end
$var wire 1 J cnt1[15]~63_combout $end
$var wire 1 K cnt1[16]~65_combout $end
$var wire 1 L cnt1[18]~69_combout $end
$var wire 1 M cnt1[19]~71_combout $end
$var wire 1 N cnt1[21]~75_combout $end
$var wire 1 O cnt1[30]~94 $end
$var wire 1 P cnt1[31]~95_combout $end
$var wire 1 Q LessThan1~3_combout $end
$var wire 1 R LessThan1~9_combout $end
$var wire 1 S LessThan2~1_combout $end
$var wire 1 T LessThan2~9_combout $end
$var wire 1 U LessThan3~1_combout $end
$var wire 1 V LessThan3~5_combout $end
$var wire 1 W clk_1khz~output_o $end
$var wire 1 X clk_100hz~output_o $end
$var wire 1 Y clk_10hz~output_o $end
$var wire 1 Z clk_1hz~output_o $end
$var wire 1 [ clk_50mhz~input_o $end
$var wire 1 \ clk_50mhz~inputclkctrl_outclk $end
$var wire 1 ] clk_1khz~0_combout $end
$var wire 1 ^ clk_1khz~reg0_q $end
$var wire 1 _ rst~input_o $end
$var wire 1 ` cnt3[0]~32_combout $end
$var wire 1 a cnt3[1]~34_combout $end
$var wire 1 b cnt3[0]~33 $end
$var wire 1 c cnt3[1]~35_combout $end
$var wire 1 d cnt3[1]~36 $end
$var wire 1 e cnt3[2]~37_combout $end
$var wire 1 f cnt3[2]~38 $end
$var wire 1 g cnt3[3]~40 $end
$var wire 1 h cnt3[4]~41_combout $end
$var wire 1 i cnt3[4]~42 $end
$var wire 1 j cnt3[5]~44 $end
$var wire 1 k cnt3[6]~46 $end
$var wire 1 l cnt3[7]~47_combout $end
$var wire 1 m cnt3[7]~48 $end
$var wire 1 n cnt3[8]~49_combout $end
$var wire 1 o cnt3[8]~50 $end
$var wire 1 p cnt3[9]~51_combout $end
$var wire 1 q cnt3[9]~52 $end
$var wire 1 r cnt3[10]~53_combout $end
$var wire 1 s cnt3[10]~54 $end
$var wire 1 t cnt3[11]~56 $end
$var wire 1 u cnt3[12]~57_combout $end
$var wire 1 v cnt3[12]~58 $end
$var wire 1 w cnt3[13]~60 $end
$var wire 1 x cnt3[14]~61_combout $end
$var wire 1 y cnt3[14]~62 $end
$var wire 1 z cnt3[15]~64 $end
$var wire 1 { cnt3[16]~65_combout $end
$var wire 1 | cnt3[16]~66 $end
$var wire 1 } cnt3[17]~67_combout $end
$var wire 1 ~ cnt3[17]~68 $end
$var wire 1 !! cnt3[18]~69_combout $end
$var wire 1 "! cnt3[18]~70 $end
$var wire 1 #! cnt3[19]~72 $end
$var wire 1 $! cnt3[20]~73_combout $end
$var wire 1 %! cnt3[20]~74 $end
$var wire 1 &! cnt3[21]~75_combout $end
$var wire 1 '! cnt3[21]~76 $end
$var wire 1 (! cnt3[22]~78 $end
$var wire 1 )! cnt3[23]~79_combout $end
$var wire 1 *! cnt3[23]~80 $end
$var wire 1 +! cnt3[24]~81_combout $end
$var wire 1 ,! cnt3[24]~82 $end
$var wire 1 -! cnt3[25]~83_combout $end
$var wire 1 .! cnt3[25]~84 $end
$var wire 1 /! cnt3[26]~85_combout $end
$var wire 1 0! cnt3[26]~86 $end
$var wire 1 1! cnt3[27]~87_combout $end
$var wire 1 2! LessThan1~8_combout $end
$var wire 1 3! cnt3[3]~39_combout $end
$var wire 1 4! LessThan1~0_combout $end
$var wire 1 5! cnt3[6]~45_combout $end
$var wire 1 6! LessThan1~1_combout $end
$var wire 1 7! cnt3[11]~55_combout $end
$var wire 1 8! LessThan1~2_combout $end
$var wire 1 9! LessThan1~4_combout $end
$var wire 1 :! LessThan1~6_combout $end
$var wire 1 ;! LessThan1~5_combout $end
$var wire 1 <! LessThan1~7_combout $end
$var wire 1 =! LessThan1~10_combout $end
$var wire 1 >! clk_100hz~0_combout $end
$var wire 1 ?! clk_100hz~reg0_q $end
$var wire 1 @! cnt2[0]~32_combout $end
$var wire 1 A! cnt2[0]~34_combout $end
$var wire 1 B! cnt2[0]~33 $end
$var wire 1 C! cnt2[1]~35_combout $end
$var wire 1 D! cnt2[1]~36 $end
$var wire 1 E! cnt2[2]~37_combout $end
$var wire 1 F! cnt2[2]~38 $end
$var wire 1 G! cnt2[3]~40 $end
$var wire 1 H! cnt2[4]~41_combout $end
$var wire 1 I! cnt2[4]~42 $end
$var wire 1 J! cnt2[5]~44 $end
$var wire 1 K! cnt2[6]~46 $end
$var wire 1 L! cnt2[7]~47_combout $end
$var wire 1 M! cnt2[7]~48 $end
$var wire 1 N! cnt2[8]~49_combout $end
$var wire 1 O! cnt2[8]~50 $end
$var wire 1 P! cnt2[9]~51_combout $end
$var wire 1 Q! cnt2[9]~52 $end
$var wire 1 R! cnt2[10]~53_combout $end
$var wire 1 S! cnt2[10]~54 $end
$var wire 1 T! cnt2[11]~56 $end
$var wire 1 U! cnt2[12]~57_combout $end
$var wire 1 V! cnt2[12]~58 $end
$var wire 1 W! cnt2[13]~60 $end
$var wire 1 X! cnt2[14]~61_combout $end
$var wire 1 Y! cnt2[14]~62 $end
$var wire 1 Z! cnt2[15]~64 $end
$var wire 1 [! cnt2[16]~65_combout $end
$var wire 1 \! cnt2[16]~66 $end
$var wire 1 ]! cnt2[17]~67_combout $end
$var wire 1 ^! cnt2[17]~68 $end
$var wire 1 _! cnt2[18]~69_combout $end
$var wire 1 `! cnt2[18]~70 $end
$var wire 1 a! cnt2[19]~72 $end
$var wire 1 b! cnt2[20]~73_combout $end
$var wire 1 c! cnt2[20]~74 $end
$var wire 1 d! cnt2[21]~76 $end
$var wire 1 e! cnt2[22]~78 $end
$var wire 1 f! cnt2[23]~79_combout $end
$var wire 1 g! cnt2[23]~80 $end
$var wire 1 h! cnt2[24]~81_combout $end
$var wire 1 i! cnt2[24]~82 $end
$var wire 1 j! cnt2[25]~83_combout $end
$var wire 1 k! cnt2[25]~84 $end
$var wire 1 l! cnt2[26]~85_combout $end
$var wire 1 m! cnt2[26]~86 $end
$var wire 1 n! cnt2[27]~87_combout $end
$var wire 1 o! LessThan2~8_combout $end
$var wire 1 p! cnt2[3]~39_combout $end
$var wire 1 q! LessThan2~0_combout $end
$var wire 1 r! cnt2[13]~59_combout $end
$var wire 1 s! LessThan2~3_combout $end
$var wire 1 t! cnt2[11]~55_combout $end
$var wire 1 u! LessThan2~2_combout $end
$var wire 1 v! LessThan2~4_combout $end
$var wire 1 w! cnt2[21]~75_combout $end
$var wire 1 x! LessThan2~6_combout $end
$var wire 1 y! cnt2[19]~71_combout $end
$var wire 1 z! LessThan2~5_combout $end
$var wire 1 {! LessThan2~7_combout $end
$var wire 1 |! LessThan2~10_combout $end
$var wire 1 }! clk_10hz~0_combout $end
$var wire 1 ~! clk_10hz~reg0_q $end
$var wire 1 !" cnt1[0]~32_combout $end
$var wire 1 "" cnt1[31]~34_combout $end
$var wire 1 #" cnt1[0]~33 $end
$var wire 1 $" cnt1[1]~35_combout $end
$var wire 1 %" cnt1[1]~36 $end
$var wire 1 &" cnt1[2]~37_combout $end
$var wire 1 '" cnt1[2]~38 $end
$var wire 1 (" cnt1[3]~40 $end
$var wire 1 )" cnt1[4]~41_combout $end
$var wire 1 *" cnt1[4]~42 $end
$var wire 1 +" cnt1[5]~44 $end
$var wire 1 ," cnt1[6]~46 $end
$var wire 1 -" cnt1[7]~47_combout $end
$var wire 1 ." cnt1[7]~48 $end
$var wire 1 /" cnt1[8]~49_combout $end
$var wire 1 0" cnt1[8]~50 $end
$var wire 1 1" cnt1[9]~51_combout $end
$var wire 1 2" cnt1[9]~52 $end
$var wire 1 3" cnt1[10]~53_combout $end
$var wire 1 4" cnt1[10]~54 $end
$var wire 1 5" cnt1[11]~56 $end
$var wire 1 6" cnt1[12]~57_combout $end
$var wire 1 7" cnt1[12]~58 $end
$var wire 1 8" cnt1[13]~60 $end
$var wire 1 9" cnt1[14]~61_combout $end
$var wire 1 :" cnt1[14]~62 $end
$var wire 1 ;" cnt1[15]~64 $end
$var wire 1 <" cnt1[16]~66 $end
$var wire 1 =" cnt1[17]~67_combout $end
$var wire 1 >" cnt1[17]~68 $end
$var wire 1 ?" cnt1[18]~70 $end
$var wire 1 @" cnt1[19]~72 $end
$var wire 1 A" cnt1[20]~73_combout $end
$var wire 1 B" cnt1[20]~74 $end
$var wire 1 C" cnt1[21]~76 $end
$var wire 1 D" cnt1[22]~77_combout $end
$var wire 1 E" cnt1[22]~78 $end
$var wire 1 F" cnt1[23]~79_combout $end
$var wire 1 G" LessThan3~6_combout $end
$var wire 1 H" LessThan3~0_combout $end
$var wire 1 I" cnt1[13]~59_combout $end
$var wire 1 J" LessThan3~3_combout $end
$var wire 1 K" cnt1[11]~55_combout $end
$var wire 1 L" LessThan3~2_combout $end
$var wire 1 M" LessThan3~4_combout $end
$var wire 1 N" cnt1[23]~80 $end
$var wire 1 O" cnt1[24]~81_combout $end
$var wire 1 P" cnt1[24]~82 $end
$var wire 1 Q" cnt1[25]~83_combout $end
$var wire 1 R" cnt1[25]~84 $end
$var wire 1 S" cnt1[26]~85_combout $end
$var wire 1 T" cnt1[26]~86 $end
$var wire 1 U" cnt1[27]~88 $end
$var wire 1 V" cnt1[28]~89_combout $end
$var wire 1 W" cnt1[28]~90 $end
$var wire 1 X" cnt1[29]~91_combout $end
$var wire 1 Y" cnt1[29]~92 $end
$var wire 1 Z" cnt1[30]~93_combout $end
$var wire 1 [" LessThan3~8_combout $end
$var wire 1 \" cnt1[27]~87_combout $end
$var wire 1 ]" LessThan3~7_combout $end
$var wire 1 ^" LessThan3~9_combout $end
$var wire 1 _" LessThan3~10_combout $end
$var wire 1 `" clk_1hz~0_combout $end
$var wire 1 a" clk_1hz~reg0_q $end
$var wire 1 b" cnt2 [31] $end
$var wire 1 c" cnt2 [30] $end
$var wire 1 d" cnt2 [29] $end
$var wire 1 e" cnt2 [28] $end
$var wire 1 f" cnt2 [27] $end
$var wire 1 g" cnt2 [26] $end
$var wire 1 h" cnt2 [25] $end
$var wire 1 i" cnt2 [24] $end
$var wire 1 j" cnt2 [23] $end
$var wire 1 k" cnt2 [22] $end
$var wire 1 l" cnt2 [21] $end
$var wire 1 m" cnt2 [20] $end
$var wire 1 n" cnt2 [19] $end
$var wire 1 o" cnt2 [18] $end
$var wire 1 p" cnt2 [17] $end
$var wire 1 q" cnt2 [16] $end
$var wire 1 r" cnt2 [15] $end
$var wire 1 s" cnt2 [14] $end
$var wire 1 t" cnt2 [13] $end
$var wire 1 u" cnt2 [12] $end
$var wire 1 v" cnt2 [11] $end
$var wire 1 w" cnt2 [10] $end
$var wire 1 x" cnt2 [9] $end
$var wire 1 y" cnt2 [8] $end
$var wire 1 z" cnt2 [7] $end
$var wire 1 {" cnt2 [6] $end
$var wire 1 |" cnt2 [5] $end
$var wire 1 }" cnt2 [4] $end
$var wire 1 ~" cnt2 [3] $end
$var wire 1 !# cnt2 [2] $end
$var wire 1 "# cnt2 [1] $end
$var wire 1 ## cnt2 [0] $end
$var wire 1 $# cnt3 [31] $end
$var wire 1 %# cnt3 [30] $end
$var wire 1 &# cnt3 [29] $end
$var wire 1 '# cnt3 [28] $end
$var wire 1 (# cnt3 [27] $end
$var wire 1 )# cnt3 [26] $end
$var wire 1 *# cnt3 [25] $end
$var wire 1 +# cnt3 [24] $end
$var wire 1 ,# cnt3 [23] $end
$var wire 1 -# cnt3 [22] $end
$var wire 1 .# cnt3 [21] $end
$var wire 1 /# cnt3 [20] $end
$var wire 1 0# cnt3 [19] $end
$var wire 1 1# cnt3 [18] $end
$var wire 1 2# cnt3 [17] $end
$var wire 1 3# cnt3 [16] $end
$var wire 1 4# cnt3 [15] $end
$var wire 1 5# cnt3 [14] $end
$var wire 1 6# cnt3 [13] $end
$var wire 1 7# cnt3 [12] $end
$var wire 1 8# cnt3 [11] $end
$var wire 1 9# cnt3 [10] $end
$var wire 1 :# cnt3 [9] $end
$var wire 1 ;# cnt3 [8] $end
$var wire 1 <# cnt3 [7] $end
$var wire 1 =# cnt3 [6] $end
$var wire 1 ># cnt3 [5] $end
$var wire 1 ?# cnt3 [4] $end
$var wire 1 @# cnt3 [3] $end
$var wire 1 A# cnt3 [2] $end
$var wire 1 B# cnt3 [1] $end
$var wire 1 C# cnt3 [0] $end
$var wire 1 D# cnt1 [31] $end
$var wire 1 E# cnt1 [30] $end
$var wire 1 F# cnt1 [29] $end
$var wire 1 G# cnt1 [28] $end
$var wire 1 H# cnt1 [27] $end
$var wire 1 I# cnt1 [26] $end
$var wire 1 J# cnt1 [25] $end
$var wire 1 K# cnt1 [24] $end
$var wire 1 L# cnt1 [23] $end
$var wire 1 M# cnt1 [22] $end
$var wire 1 N# cnt1 [21] $end
$var wire 1 O# cnt1 [20] $end
$var wire 1 P# cnt1 [19] $end
$var wire 1 Q# cnt1 [18] $end
$var wire 1 R# cnt1 [17] $end
$var wire 1 S# cnt1 [16] $end
$var wire 1 T# cnt1 [15] $end
$var wire 1 U# cnt1 [14] $end
$var wire 1 V# cnt1 [13] $end
$var wire 1 W# cnt1 [12] $end
$var wire 1 X# cnt1 [11] $end
$var wire 1 Y# cnt1 [10] $end
$var wire 1 Z# cnt1 [9] $end
$var wire 1 [# cnt1 [8] $end
$var wire 1 \# cnt1 [7] $end
$var wire 1 ]# cnt1 [6] $end
$var wire 1 ^# cnt1 [5] $end
$var wire 1 _# cnt1 [4] $end
$var wire 1 `# cnt1 [3] $end
$var wire 1 a# cnt1 [2] $end
$var wire 1 b# cnt1 [1] $end
$var wire 1 c# cnt1 [0] $end
$upscope $end
$upscope $end
$enddefinitions $end
#0
$dumpvars
0!
1"
0#
0$
0%
0&
x'
0(
1)
x*
1+
1,
1-
0.
0/
00
01
02
13
04
05
06
17
08
09
0:
0;
0<
0=
0>
1?
0@
0A
0B
1C
0D
0E
0F
0G
0H
0I
0J
0K
0L
0M
0N
0O
0P
0Q
0R
1S
1T
1U
1V
0W
0X
0Y
0Z
0[
0\
0]
0^
1_
1`
1a
0b
0c
1d
0e
0f
1g
0h
0i
1j
0k
0l
1m
0n
0o
0p
1q
0r
0s
1t
0u
0v
1w
0x
0y
1z
0{
0|
0}
1~
0!!
0"!
1#!
0$!
0%!
0&!
1'!
0(!
0)!
1*!
0+!
0,!
0-!
1.!
0/!
00!
01!
02!
03!
04!
05!
06!
07!
08!
09!
0:!
0;!
0<!
0=!
0>!
0?!
1@!
1A!
0B!
0C!
1D!
0E!
0F!
1G!
0H!
0I!
1J!
0K!
0L!
1M!
0N!
0O!
0P!
1Q!
0R!
0S!
1T!
0U!
0V!
1W!
0X!
0Y!
1Z!
0[!
0\!
0]!
1^!
0_!
0`!
1a!
0b!
0c!
1d!
0e!
0f!
1g!
0h!
0i!
0j!
1k!
0l!
0m!
0n!
1o!
0p!
1q!
0r!
1s!
0t!
1u!
1v!
0w!
1x!
0y!
1z!
1{!
1|!
0}!
0~!
1!"
1""
0#"
0$"
1%"
0&"
0'"
1("
0)"
0*"
1+"
0,"
0-"
1."
0/"
00"
01"
12"
03"
04"
15"
06"
07"
18"
09"
0:"
1;"
0<"
0="
1>"
0?"
1@"
0A"
0B"
1C"
0D"
0E"
0F"
1G"
1H"
0I"
1J"
0K"
1L"
1M"
1N"
0O"
0P"
0Q"
1R"
0S"
0T"
1U"
0V"
0W"
0X"
1Y"
0Z"
1["
0\"
1]"
1^"
1_"
0`"
0a"
0##
0"#
0!#
0~"
0}"
0|"
0{"
0z"
0y"
0x"
0w"
0v"
0u"
0t"
0s"
0r"
0q"
0p"
0o"
0n"
0m"
0l"
0k"
0j"
0i"
0h"
0g"
0f"
0e"
0d"
0c"
0b"
0C#
0B#
0A#
0@#
0?#
0>#
0=#
0<#
0;#
0:#
09#
08#
07#
06#
05#
04#
03#
02#
01#
00#
0/#
0.#
0-#
0,#
0+#
0*#
0)#
0(#
0'#
0&#
0%#
0$#
0c#
0b#
0a#
0`#
0_#
0^#
0]#
0\#
0[#
0Z#
0Y#
0X#
0W#
0V#
0U#
0T#
0S#
0R#
0Q#
0P#
0O#
0N#
0M#
0L#
0K#
0J#
0I#
0H#
0G#
0F#
0E#
0D#
$end
#5000
0"
0_
0'
0""
0A!
0a
1]
#20000
1!
1[
1\
1'
1c#
1##
1C#
1^
1#"
0!"
1B!
0@!
14!
1b
0`
0]
1W
1$
1$"
1C!
19!
1c
1=!
1>!
1a
#40000
0!
0[
0\
0'
#60000
1!
1[
1\
1'
1b#
0c#
1"#
0##
0C#
1?!
0^
0%"
0$"
0#"
1!"
0D!
0C!
0B!
1@!
04!
0b
1`
0>!
1]
1X
0W
1&
0$
1&"
1%"
1$"
1E!
1D!
1C!
09!
0c
0&"
0E!
0=!
1>!
0a
#80000
0!
0[
0\
0'
#100000
1!
1[
1\
1'
1c#
1##
1C#
1^
1#"
0!"
0q!
1B!
0@!
14!
1b
0`
0]
1W
1$
0%"
0$"
0v!
0D!
0C!
19!
1c
1&"
0|!
1E!
1=!
1}!
1A!
0>!
1a
#120000
0!
0[
0\
0'
#140000
1!
1[
1\
1'
1a#
0b#
0c#
0"#
0##
0C#
1~!
0?!
0^
1'"
0&"
1%"
1$"
0#"
1!"
1q!
1D!
1C!
0B!
1@!
04!
0b
1`
0}!
1>!
1]
1Y
0X
0W
1%
0&
0$
1G
0'"
1&"
0$"
1v!
0E!
0C!
09!
0c
0G
1|!
0=!
1}!
0A!
0>!
0a
#160000
0!
0[
0\
0'
#180000
1!
1[
1\
1'
1c#
1##
1C#
1^
1#"
0!"
1B!
0@!
14!
1b
0`
0]
1W
1$
1$"
1C!
19!
1c
1=!
1>!
1a
#200000
0!
0[
0\
0'
#220000
1!
1[
1\
1'
1b#
0c#
1"#
0##
0C#
1?!
0^
0%"
0$"
0#"
1!"
0D!
0C!
0B!
1@!
04!
0b
1`
0>!
1]
1X
0W
1&
0$
1'"
0&"
1%"
1$"
1E!
1D!
1C!
09!
0c
1G
0'"
1&"
0E!
0=!
0G
1>!
0a
#240000
0!
0[
0\
0'
#260000
1!
1[
1\
1'
1c#
1##
1C#
1^
0H"
1#"
0!"
0q!
1B!
0@!
14!
1b
0`
0]
1W
1$
0M"
0%"
0$"
0v!
0D!
0C!
19!
1c
0_"
1'"
0&"
0|!
1E!
1=!
1`"
1""
1G
0}!
1A!
0>!
1a
#280000
0!
0[
0\
0'
#300000
1!
1[
1\
1'
0a#
0b#
0c#
0"#
0##
0C#
1a"
0~!
0?!
0^
1H"
0'"
1&"
1%"
1$"
0#"
1!"
1q!
1D!
1C!
0B!
1@!
04!
0b
1`
0`"
1}!
1>!
1]
1Z
0Y
0X
0W
1#
0%
0&
0$
1M"
0G
0&"
0$"
1v!
0E!
0C!
09!
0c
1_"
1|!
0=!
1`"
0""
0}!
0A!
0>!
0a
#320000
0!
0[
0\
0'
#340000
1!
1[
1\
1'
1c#
1##
1C#
1^
1#"
0!"
1B!
0@!
14!
1b
0`
0]
1W
1$
1$"
1C!
19!
1c
1=!
1>!
1a
#360000
0!
0[
0\
0'
#380000
1!
1[
1\
1'
1b#
0c#
1"#
0##
0C#
1?!
0^
0%"
0$"
0#"
1!"
0D!
0C!
0B!
1@!
04!
0b
1`
0>!
1]
1X
0W
1&
0$
1&"
1%"
1$"
1E!
1D!
1C!
09!
0c
0&"
0E!
0=!
1>!
0a
#400000
0!
0[
0\
0'
#420000
1!
1[
1\
1'
1c#
1##
1C#
1^
1#"
0!"
0q!
1B!
0@!
14!
1b
0`
0]
1W
1$
0%"
0$"
0v!
0D!
0C!
19!
1c
1&"
0|!
1E!
1=!
1}!
1A!
0>!
1a
#440000
0!
0[
0\
0'
#460000
1!
1[
1\
1'
1a#
0b#
0c#
0"#
0##
0C#
1~!
0?!
0^
1'"
0&"
1%"
1$"
0#"
1!"
1q!
1D!
1C!
0B!
1@!
04!
0b
1`
0}!
1>!
1]
1Y
0X
0W
1%
0&
0$
1G
0'"
1&"
0$"
1v!
0E!
0C!
09!
0c
0G
1|!
0=!
1}!
0A!
0>!
0a
#480000
0!
0[
0\
0'
#500000
1!
1[
1\
1'
1c#
1##
1C#
1^
1#"
0!"
1B!
0@!
14!
1b
0`
0]
1W
1$
1$"
1C!
19!
1c
1=!
1>!
1a
#520000
0!
0[
0\
0'
#540000
1!
1[
1\
1'
1b#
0c#
1"#
0##
0C#
1?!
0^
0%"
0$"
0#"
1!"
0D!
0C!
0B!
1@!
04!
0b
1`
0>!
1]
1X
0W
1&
0$
1'"
0&"
1%"
1$"
1E!
1D!
1C!
09!
0c
1G
0'"
1&"
0E!
0=!
0G
1>!
0a
#560000
0!
0[
0\
0'
#580000
1!
1[
1\
1'
1c#
1##
1C#
1^
0H"
1#"
0!"
0q!
1B!
0@!
14!
1b
0`
0]
1W
1$
0M"
0%"
0$"
0v!
0D!
0C!
19!
1c
0_"
1'"
0&"
0|!
1E!
1=!
0`"
1""
1G
0}!
1A!
0>!
1a
#600000
0!
0[
0\
0'
#620000
1!
1[
1\
1'
0a#
0b#
0c#
0"#
0##
0C#
0a"
0~!
0?!
0^
1H"
0'"
1&"
1%"
1$"
0#"
1!"
1q!
1D!
1C!
0B!
1@!
04!
0b
1`
1`"
1}!
1>!
1]
0Z
0Y
0X
0W
0#
0%
0&
0$
1M"
0G
0&"
0$"
1v!
0E!
0C!
09!
0c
1_"
1|!
0=!
0`"
0""
0}!
0A!
0>!
0a
#640000
0!
0[
0\
0'
#660000
1!
1[
1\
1'
1c#
1##
1C#
1^
1#"
0!"
1B!
0@!
14!
1b
0`
0]
1W
1$
1$"
1C!
19!
1c
1=!
1>!
1a
#680000
0!
0[
0\
0'
#700000
1!
1[
1\
1'
1b#
0c#
1"#
0##
0C#
1?!
0^
0%"
0$"
0#"
1!"
0D!
0C!
0B!
1@!
04!
0b
1`
0>!
1]
1X
0W
1&
0$
1&"
1%"
1$"
1E!
1D!
1C!
09!
0c
0&"
0E!
0=!
1>!
0a
#720000
0!
0[
0\
0'
#740000
1!
1[
1\
1'
1c#
1##
1C#
1^
1#"
0!"
0q!
1B!
0@!
14!
1b
0`
0]
1W
1$
0%"
0$"
0v!
0D!
0C!
19!
1c
1&"
0|!
1E!
1=!
1}!
1A!
0>!
1a
#760000
0!
0[
0\
0'
#780000
1!
1[
1\
1'
1a#
0b#
0c#
0"#
0##
0C#
1~!
0?!
0^
1'"
0&"
1%"
1$"
0#"
1!"
1q!
1D!
1C!
0B!
1@!
04!
0b
1`
0}!
1>!
1]
1Y
0X
0W
1%
0&
0$
1G
0'"
1&"
0$"
1v!
0E!
0C!
09!
0c
0G
1|!
0=!
1}!
0A!
0>!
0a
#800000
0!
0[
0\
0'
#820000
1!
1[
1\
1'
1c#
1##
1C#
1^
1#"
0!"
1B!
0@!
14!
1b
0`
0]
1W
1$
1$"
1C!
19!
1c
1=!
1>!
1a
#840000
0!
0[
0\
0'
#860000
1!
1[
1\
1'
1b#
0c#
1"#
0##
0C#
1?!
0^
0%"
0$"
0#"
1!"
0D!
0C!
0B!
1@!
04!
0b
1`
0>!
1]
1X
0W
1&
0$
1'"
0&"
1%"
1$"
1E!
1D!
1C!
09!
0c
1G
0'"
1&"
0E!
0=!
0G
1>!
0a
#880000
0!
0[
0\
0'
#900000
1!
1[
1\
1'
1c#
1##
1C#
1^
0H"
1#"
0!"
0q!
1B!
0@!
14!
1b
0`
0]
1W
1$
0M"
0%"
0$"
0v!
0D!
0C!
19!
1c
0_"
1'"
0&"
0|!
1E!
1=!
1`"
1""
1G
0}!
1A!
0>!
1a
#920000
0!
0[
0\
0'
#940000
1!
1[
1\
1'
0a#
0b#
0c#
0"#
0##
0C#
1a"
0~!
0?!
0^
1H"
0'"
1&"
1%"
1$"
0#"
1!"
1q!
1D!
1C!
0B!
1@!
04!
0b
1`
0`"
1}!
1>!
1]
1Z
0Y
0X
0W
1#
0%
0&
0$
1M"
0G
0&"
0$"
1v!
0E!
0C!
09!
0c
1_"
1|!
0=!
1`"
0""
0}!
0A!
0>!
0a
#960000
0!
0[
0\
0'
#980000
1!
1[
1\
1'
1c#
1##
1C#
1^
1#"
0!"
1B!
0@!
14!
1b
0`
0]
1W
1$
1$"
1C!
19!
1c
1=!
1>!
1a
#1000000
0!
0[
0\
0'
#1020000
1!
1[
1\
1'
1b#
0c#
1"#
0##
0C#
1?!
0^
0%"
0$"
0#"
1!"
0D!
0C!
0B!
1@!
04!
0b
1`
0>!
1]
1X
0W
1&
0$
1&"
1%"
1$"
1E!
1D!
1C!
09!
0c
0&"
0E!
0=!
1>!
0a
#1040000
0!
0[
0\
0'
#1060000
1!
1[
1\
1'
1c#
1##
1C#
1^
1#"
0!"
0q!
1B!
0@!
14!
1b
0`
0]
1W
1$
0%"
0$"
0v!
0D!
0C!
19!
1c
1&"
0|!
1E!
1=!
1}!
1A!
0>!
1a
#1080000
0!
0[
0\
0'
#1100000
1!
1[
1\
1'
1a#
0b#
0c#
0"#
0##
0C#
1~!
0?!
0^
1'"
0&"
1%"
1$"
0#"
1!"
1q!
1D!
1C!
0B!
1@!
04!
0b
1`
0}!
1>!
1]
1Y
0X
0W
1%
0&
0$
1G
0'"
1&"
0$"
1v!
0E!
0C!
09!
0c
0G
1|!
0=!
1}!
0A!
0>!
0a
#1120000
0!
0[
0\
0'
#1140000
1!
1[
1\
1'
1c#
1##
1C#
1^
1#"
0!"
1B!
0@!
14!
1b
0`
0]
1W
1$
1$"
1C!
19!
1c
1=!
1>!
1a
#1160000
0!
0[
0\
0'
#1180000
1!
1[
1\
1'
1b#
0c#
1"#
0##
0C#
1?!
0^
0%"
0$"
0#"
1!"
0D!
0C!
0B!
1@!
04!
0b
1`
0>!
1]
1X
0W
1&
0$
1'"
0&"
1%"
1$"
1E!
1D!
1C!
09!
0c
1G
0'"
1&"
0E!
0=!
0G
1>!
0a
#1200000
0!
0[
0\
0'
#1220000
1!
1[
1\
1'
1c#
1##
1C#
1^
0H"
1#"
0!"
0q!
1B!
0@!
14!
1b
0`
0]
1W
1$
0M"
0%"
0$"
0v!
0D!
0C!
19!
1c
0_"
1'"
0&"
0|!
1E!
1=!
0`"
1""
1G
0}!
1A!
0>!
1a
#1240000
0!
0[
0\
0'
#1260000
1!
1[
1\
1'
0a#
0b#
0c#
0"#
0##
0C#
0a"
0~!
0?!
0^
1H"
0'"
1&"
1%"
1$"
0#"
1!"
1q!
1D!
1C!
0B!
1@!
04!
0b
1`
1`"
1}!
1>!
1]
0Z
0Y
0X
0W
0#
0%
0&
0$
1M"
0G
0&"
0$"
1v!
0E!
0C!
09!
0c
1_"
1|!
0=!
0`"
0""
0}!
0A!
0>!
0a
#1280000
0!
0[
0\
0'
#1300000
1!
1[
1\
1'
1c#
1##
1C#
1^
1#"
0!"
1B!
0@!
14!
1b
0`
0]
1W
1$
1$"
1C!
19!
1c
1=!
1>!
1a
#1320000
0!
0[
0\
0'
#1340000
1!
1[
1\
1'
1b#
0c#
1"#
0##
0C#
1?!
0^
0%"
0$"
0#"
1!"
0D!
0C!
0B!
1@!
04!
0b
1`
0>!
1]
1X
0W
1&
0$
1&"
1%"
1$"
1E!
1D!
1C!
09!
0c
0&"
0E!
0=!
1>!
0a
#1360000
0!
0[
0\
0'
#1380000
1!
1[
1\
1'
1c#
1##
1C#
1^
1#"
0!"
0q!
1B!
0@!
14!
1b
0`
0]
1W
1$
0%"
0$"
0v!
0D!
0C!
19!
1c
1&"
0|!
1E!
1=!
1}!
1A!
0>!
1a
#1400000
0!
0[
0\
0'
#1420000
1!
1[
1\
1'
1a#
0b#
0c#
0"#
0##
0C#
1~!
0?!
0^
1'"
0&"
1%"
1$"
0#"
1!"
1q!
1D!
1C!
0B!
1@!
04!
0b
1`
0}!
1>!
1]
1Y
0X
0W
1%
0&
0$
1G
0'"
1&"
0$"
1v!
0E!
0C!
09!
0c
0G
1|!
0=!
1}!
0A!
0>!
0a
#1440000
0!
0[
0\
0'
