TenthProject-00/simulation/qsim/TenthProject.msim.vcd
$comment
	File created using the following command:
		vcd file TenthProject.msim.vcd -direction
$end
$date
	Fri Dec 01 08:29:08 2017
$end
$version
	ModelSim Version 10.1d
$end
$timescale
	1ps
$end
$scope module TenthProject_vlg_vec_tst $end
$var reg 1 ! clk $end
$var reg 1 " clr $end
$var reg 1 # rst $end
$var reg 1 $ sel $end
$var wire 1 % out_num [7] $end
$var wire 1 & out_num [6] $end
$var wire 1 ' out_num [5] $end
$var wire 1 ( out_num [4] $end
$var wire 1 ) out_num [3] $end
$var wire 1 * out_num [2] $end
$var wire 1 + out_num [1] $end
$var wire 1 , out_num [0] $end
$var wire 1 - out_sel [7] $end
$var wire 1 . out_sel [6] $end
$var wire 1 / out_sel [5] $end
$var wire 1 0 out_sel [4] $end
$var wire 1 1 out_sel [3] $end
$var wire 1 2 out_sel [2] $end
$var wire 1 3 out_sel [1] $end
$var wire 1 4 out_sel [0] $end
$var wire 1 5 sampler $end
$scope module i1 $end
$var wire 1 6 gnd $end
$var wire 1 7 vcc $end
$var wire 1 8 unknown $end
$var tri1 1 9 devclrn $end
$var tri1 1 : devpor $end
$var tri1 1 ; devoe $end
$var wire 1 < clr~input_o $end
$var wire 1 = clk~input_o $end
$var wire 1 > out_sel[0]~output_o $end
$var wire 1 ? out_sel[1]~output_o $end
$var wire 1 @ out_sel[2]~output_o $end
$var wire 1 A out_sel[3]~output_o $end
$var wire 1 B out_sel[4]~output_o $end
$var wire 1 C out_sel[5]~output_o $end
$var wire 1 D out_sel[6]~output_o $end
$var wire 1 E out_sel[7]~output_o $end
$var wire 1 F out_num[0]~output_o $end
$var wire 1 G out_num[1]~output_o $end
$var wire 1 H out_num[2]~output_o $end
$var wire 1 I out_num[3]~output_o $end
$var wire 1 J out_num[4]~output_o $end
$var wire 1 K out_num[5]~output_o $end
$var wire 1 L out_num[6]~output_o $end
$var wire 1 M out_num[7]~output_o $end
$var wire 1 N rst~input_o $end
$var wire 1 O F1|clk_1khz~0_combout $end
$var wire 1 P F1|clk_1khz~feeder_combout $end
$var wire 1 Q F1|clk_1khz~q $end
$var wire 1 R F1|clk_1khz~clkctrl_outclk $end
$var wire 1 S C1|state.001~0_combout $end
$var wire 1 T C1|state.001~feeder_combout $end
$var wire 1 U C1|state.001~q $end
$var wire 1 V C1|state.010~feeder_combout $end
$var wire 1 W C1|state.010~q $end
$var wire 1 X C1|state.011~feeder_combout $end
$var wire 1 Y C1|state.011~q $end
$var wire 1 Z C1|state.100~feeder_combout $end
$var wire 1 [ C1|state.100~q $end
$var wire 1 \ C1|state.101~feeder_combout $end
$var wire 1 ] C1|state.101~q $end
$var wire 1 ^ C1|state.110~feeder_combout $end
$var wire 1 _ C1|state.110~q $end
$var wire 1 ` C1|state.111~feeder_combout $end
$var wire 1 a C1|state.111~q $end
$var wire 1 b C1|state.000~0_combout $end
$var wire 1 c C1|state.000~q $end
$var wire 1 d S1|outs[0]~0_combout $end
$var wire 1 e S1|outs[1]~feeder_combout $end
$var wire 1 f S1|outs[2]~feeder_combout $end
$var wire 1 g S1|outs[3]~feeder_combout $end
$var wire 1 h S1|outs[4]~feeder_combout $end
$var wire 1 i sel~input_o $end
$var wire 1 j C1|outc~1_combout $end
$var wire 1 k C1|outc~3_combout $end
$var wire 1 l C1|outc~2_combout $end
$var wire 1 m C1|outc~4_combout $end
$var wire 1 n C1|outc~5_combout $end
$var wire 1 o C1|outc[4]~feeder_combout $end
$var wire 1 p C1|outc[6]~7_combout $end
$var wire 1 q C1|outc~6_combout $end
$var wire 1 r S1|outs [7] $end
$var wire 1 s S1|outs [6] $end
$var wire 1 t S1|outs [5] $end
$var wire 1 u S1|outs [4] $end
$var wire 1 v S1|outs [3] $end
$var wire 1 w S1|outs [2] $end
$var wire 1 x S1|outs [1] $end
$var wire 1 y S1|outs [0] $end
$var wire 1 z C1|outc [7] $end
$var wire 1 { C1|outc [6] $end
$var wire 1 | C1|outc [5] $end
$var wire 1 } C1|outc [4] $end
$var wire 1 ~ C1|outc [3] $end
$var wire 1 !! C1|outc [2] $end
$var wire 1 "! C1|outc [1] $end
$var wire 1 #! C1|outc [0] $end
$upscope $end
$upscope $end
$enddefinitions $end
#0
$dumpvars
0!
0"
0#
0$
0,
0+
0*
0)
0(
1'
0&
0%
04
03
02
01
00
0/
0.
0-
x5
06
17
x8
19
1:
1;
0<
0=
0>
0?
0@
0A
0B
0C
0D
0E
0F
0G
0H
0I
0J
1K
0L
0M
0N
1O
1P
0Q
0R
1S
1T
0U
0V
0W
0X
0Y
0Z
0[
0\
0]
0^
0_
0`
0a
1b
0c
1d
0e
0f
0g
0h
0i
1j
1k
0l
1m
0n
1o
0p
1q
0y
0x
0w
0v
0u
0t
0s
0r
z#!
0"!
0!!
0~
0}
z|
0{
0z
$end
#12500
1!
1=
05
1Q
1R
0O
0P
1c
1U
1z
1}
1!!
1"!
1y
1n
0j
0d
0S
1e
1V
1M
1J
1H
1G
1>
1%
1(
1*
1+
14
1p
0T
#25000
0!
0=
15
#37500
1!
1=
05
0Q
0R
1O
1P
#50000
0!
0=
15
#62500
1!
1=
05
1Q
1R
0O
0P
1W
0U
1{
1~
0"!
1x
0y
1f
1X
0e
0V
1L
1I
0G
1?
0>
1&
1)
0+
13
04
#75000
0!
0=
15
#87500
1!
1=
05
0Q
0R
1O
1P
#100000
0!
0=
15
#112500
1!
1=
05
1Q
1R
0O
0P
1Y
0W
1w
0x
0q
0k
1g
1Z
0f
0X
1@
0?
12
03
0n
0m
0o
#125000
0!
0=
15
#137500
1!
1=
05
0Q
0R
1O
1P
#150000
0!
0=
15
#162500
1!
1=
05
1Q
1R
0O
0P
1[
0Y
0z
0}
0~
0!!
1v
0w
1h
1\
1q
0g
0Z
0M
0J
0I
0H
1A
0@
0%
0(
0)
0*
11
02
#175000
0!
0=
15
#187500
1!
1=
05
0Q
0R
1O
1P
#200000
0!
0=
15
#212500
1!
1=
05
1Q
1R
0O
0P
1]
0[
1z
1u
0v
1^
1k
0h
0\
1M
1B
0A
1%
10
01
1n
1m
1o
#225000
0!
0=
15
#237500
1!
1=
05
0Q
0R
1O
1P
#250000
0!
0=
15
#262500
1!
1=
05
1Q
1R
0O
0P
1_
0]
1}
1~
1!!
1t
0u
1j
1`
0^
1J
1I
1H
1C
0B
1(
1)
1*
1/
00
0p
#275000
0!
0=
15
#287500
1!
1=
05
0Q
0R
1O
1P
#300000
0!
0=
15
#312500
1!
1=
05
1Q
1R
0O
0P
1a
0_
0{
1"!
1s
0t
0q
0k
0b
0j
0`
0L
1G
1D
0C
0&
1+
1.
0/
0n
0m
1p
0o
#325000
0!
0=
15
#337500
1!
1=
05
0Q
0R
1O
1P
#350000
0!
0=
15
#362500
1!
1=
05
1Q
1R
0O
0P
0c
0a
0z
1{
0}
0~
0!!
0"!
1r
0s
1j
1d
1S
1q
1k
1b
0M
1L
0J
0I
0H
0G
1E
0D
0%
1&
0(
0)
0*
0+
1-
0.
0p
1T
1m
1o
#375000
0!
0=
15
#387500
1!
1=
05
0Q
0R
1O
1P
#400000
1$
0!
1i
0=
15
0k
0j
0m
1p
0o
#412500
1!
1=
05
1Q
1R
0O
0P
1c
1U
1z
0r
1y
0d
0S
0q
1e
1V
1M
0E
1>
1%
0-
14
0T
#425000
0!
0=
15
#437500
1!
1=
05
0Q
0R
1O
1P
#450000
0!
0=
15
#462500
1!
1=
05
1Q
1R
0O
0P
1W
0U
0z
1x
0y
1l
1f
1X
1q
0e
0V
0M
1?
0>
0%
13
04
1n
1m
1o
#475000
0!
0=
15
#487500
1!
1=
05
0Q
0R
1O
1P
#500000
0!
0=
15
#512500
1!
1=
05
1Q
1R
0O
0P
1Y
0W
1z
1}
1~
1!!
1w
0x
0q
1g
1Z
0l
0f
0X
1M
1J
1I
1H
1@
0?
1%
1(
1)
1*
12
03
0n
0m
0o
#525000
0!
0=
15
#537500
1!
1=
05
0Q
0R
1O
1P
#550000
0!
0=
15
#562500
1!
1=
05
1Q
1R
0O
0P
1[
0Y
0z
0}
0~
0!!
1v
0w
1h
1\
1q
0g
0Z
0M
0J
0I
0H
1A
0@
0%
0(
0)
0*
11
02
#575000
0!
0=
15
#587500
1!
1=
05
0Q
0R
1O
1P
#600000
0!
0=
15
#612500
1!
1=
05
1Q
1R
0O
0P
1]
0[
1z
1u
0v
1l
1^
0h
0\
1M
1B
0A
1%
10
01
1n
1m
1o
#625000
0!
0=
15
#637500
1!
1=
05
0Q
0R
1O
1P
#650000
0!
0=
15
#662500
1!
1=
05
1Q
1R
0O
0P
1_
0]
1}
1~
1!!
1t
0u
1j
1`
0^
1J
1I
1H
1C
0B
1(
1)
1*
1/
00
0p
#675000
0!
0=
15
#687500
1!
1=
05
0Q
0R
1O
1P
#700000
0!
0=
15
#712500
1!
1=
05
1Q
1R
0O
0P
1a
0_
0{
1"!
1s
0t
0q
0b
0l
0j
0`
0L
1G
1D
0C
0&
1+
1.
0/
0n
0m
1p
0o
#725000
0!
0=
15
#737500
1!
1=
05
0Q
0R
1O
1P
#750000
0!
0=
15
#762500
1!
1=
05
1Q
1R
0O
0P
0c
0a
0z
1{
0}
0~
0!!
0"!
1r
0s
1d
1S
1q
1b
0M
1L
0J
0I
0H
0G
1E
0D
0%
1&
0(
0)
0*
0+
1-
0.
1T
#775000
0!
0=
15
#787500
1!
1=
05
0Q
0R
1O
1P
#800000
0$
0!
0i
0=
15
1k
1j
1m
0p
1o
#812500
1!
1=
05
1Q
1R
0O
0P
1c
1U
1z
0{
1}
1!!
1"!
0r
1y
1n
0j
0d
0S
1e
1V
1M
0L
1J
1H
1G
0E
1>
1%
0&
1(
1*
1+
0-
14
1p
0T
#825000
0!
0=
15
#837500
1!
1=
05
0Q
0R
1O
1P
#850000
0!
0=
15
#862500
1!
1=
05
1Q
1R
0O
0P
1W
0U
1{
1~
0"!
1x
0y
1f
1X
0e
0V
1L
1I
0G
1?
0>
1&
1)
0+
13
04
#875000
0!
0=
15
#887500
1!
1=
05
0Q
0R
1O
1P
#900000
0!
0=
15
#912500
1!
1=
05
1Q
1R
0O
0P
1Y
0W
1w
0x
0q
0k
1g
1Z
0f
0X
1@
0?
12
03
0n
0m
0o
#925000
0!
0=
15
#937500
1!
1=
05
0Q
0R
1O
1P
#950000
0!
0=
15
#962500
1!
1=
05
1Q
1R
0O
0P
1[
0Y
0z
0}
0~
0!!
1v
0w
1h
1\
1q
0g
0Z
0M
0J
0I
0H
1A
0@
0%
0(
0)
0*
11
02
#975000
0!
0=
15
#987500
1!
1=
05
0Q
0R
1O
1P
#1000000
0!
0=
15
#1012500
1!
1=
05
1Q
1R
0O
0P
1]
0[
1z
1u
0v
1^
1k
0h
0\
1M
1B
0A
1%
10
01
1n
1m
1o
#1025000
0!
0=
15
#1037500
1!
1=
05
0Q
0R
1O
1P
#1050000
0!
0=
15
#1062500
1!
1=
05
1Q
1R
0O
0P
1_
0]
1}
1~
1!!
1t
0u
1j
1`
0^
1J
1I
1H
1C
0B
1(
1)
1*
1/
00
0p
#1075000
0!
0=
15
#1087500
1!
1=
05
0Q
0R
1O
1P
#1100000
0!
0=
15
#1112500
1!
1=
05
1Q
1R
0O
0P
1a
0_
0{
1"!
1s
0t
0q
0k
0b
0j
0`
0L
1G
1D
0C
0&
1+
1.
0/
0n
0m
1p
0o
#1125000
0!
0=
15
#1137500
1!
1=
05
0Q
0R
1O
1P
#1150000
0!
0=
15
#1162500
1!
1=
05
1Q
1R
0O
0P
0c
0a
0z
1{
0}
0~
0!!
0"!
1r
0s
1j
1d
1S
1q
1k
1b
0M
1L
0J
0I
0H
0G
1E
0D
0%
1&
0(
0)
0*
0+
1-
0.
0p
1T
1m
1o
#1175000
0!
0=
15
#1187500
1!
1=
05
0Q
0R
1O
1P
#1200000
1$
0!
1i
0=
15
0k
0j
0m
1p
0o
#1212500
1!
1=
05
1Q
1R
0O
0P
1c
1U
1z
0r
1y
0d
0S
0q
1e
1V
1M
0E
1>
1%
0-
14
0T
#1225000
0!
0=
15
#1237500
1!
1=
05
0Q
0R
1O
1P
#1250000
0!
0=
15
#1262500
1!
1=
05
1Q
1R
0O
0P
1W
0U
0z
1x
0y
1l
1f
1X
1q
0e
0V
0M
1?
0>
0%
13
04
1n
1m
1o
#1275000
0!
0=
15
#1287500
1!
1=
05
0Q
0R
1O
1P
#1300000
0!
0=
15
#1312500
1!
1=
05
1Q
1R
0O
0P
1Y
0W
1z
1}
1~
1!!
1w
0x
0q
1g
1Z
0l
0f
0X
1M
1J
1I
1H
1@
0?
1%
1(
1)
1*
12
03
0n
0m
0o
#1325000
0!
0=
15
#1337500
1!
1=
05
0Q
0R
1O
1P
#1350000
0!
0=
15
#1362500
1!
1=
05
1Q
1R
0O
0P
1[
0Y
0z
0}
0~
0!!
1v
0w
1h
1\
1q
0g
0Z
0M
0J
0I
0H
1A
0@
0%
0(
0)
0*
11
02
#1375000
0!
0=
15
#1387500
1!
1=
05
0Q
0R
1O
1P
#1400000
0!
0=
15
#1412500
1!
1=
05
1Q
1R
0O
0P
1]
0[
1z
1u
0v
1l
1^
0h
0\
1M
1B
0A
1%
10
01
1n
1m
1o
#1425000
0!
0=
15
#1437500
1!
1=
05
0Q
0R
1O
1P
#1450000
0!
0=
15
#1462500
1!
1=
05
1Q
1R
0O
0P
1_
0]
1}
1~
1!!
1t
0u
1j
1`
0^
1J
1I
1H
1C
0B
1(
1)
1*
1/
00
0p
#1475000
0!
0=
15
#1487500
1!
1=
05
0Q
0R
1O
1P
#1500000
0!
0=
15
#1512500
1!
1=
05
1Q
1R
0O
0P
1a
0_
0{
1"!
1s
0t
0q
0b
0l
0j
0`
0L
1G
1D
0C
0&
1+
1.
0/
0n
0m
1p
0o
#1525000
0!
0=
15
#1537500
1!
1=
05
0Q
0R
1O
1P
#1550000
0!
0=
15
#1562500
1!
1=
05
1Q
1R
0O
0P
0c
0a
0z
1{
0}
0~
0!!
0"!
1r
0s
1d
1S
1q
1b
0M
1L
0J
0I
0H
0G
1E
0D
0%
1&
0(
0)
0*
0+
1-
0.
1T
#1575000
0!
0=
15
#1587500
1!
1=
05
0Q
0R
1O
1P
#1600000
0$
0!
0i
0=
15
1k
1j
1m
0p
1o
#1612500
1!
1=
05
1Q
1R
0O
0P
1c
1U
1z
0{
1}
1!!
1"!
0r
1y
1n
0j
0d
0S
1e
1V
1M
0L
1J
1H
1G
0E
1>
1%
0&
1(
1*
1+
0-
14
1p
0T
#1625000
0!
0=
15
#1637500
1!
1=
05
0Q
0R
1O
1P
#1650000
0!
0=
15
#1662500
1!
1=
05
1Q
1R
0O
0P
1W
0U
1{
1~
0"!
1x
0y
1f
1X
0e
0V
1L
1I
0G
1?
0>
1&
1)
0+
13
04
#1675000
0!
0=
15
#1687500
1!
1=
05
0Q
0R
1O
1P
#1700000
0!
0=
15
#1712500
1!
1=
05
1Q
1R
0O
0P
1Y
0W
1w
0x
0q
0k
1g
1Z
0f
0X
1@
0?
12
03
0n
0m
0o
#1725000
0!
0=
15
#1737500
1!
1=
05
0Q
0R
1O
1P
#1750000
0!
0=
15
#1762500
1!
1=
05
1Q
1R
0O
0P
1[
0Y
0z
0}
0~
0!!
1v
0w
1h
1\
1q
0g
0Z
0M
0J
0I
0H
1A
0@
0%
0(
0)
0*
11
02
#1775000
0!
0=
15
#1787500
1!
1=
05
0Q
0R
1O
1P
#1800000
0!
0=
15
#1812500
1!
1=
05
1Q
1R
0O
0P
1]
0[
1z
1u
0v
1^
1k
0h
0\
1M
1B
0A
1%
10
01
1n
1m
1o
#1825000
0!
0=
15
#1837500
1!
1=
05
0Q
0R
1O
1P
#1850000
0!
0=
15
#1862500
1!
1=
05
1Q
1R
0O
0P
1_
0]
1}
1~
1!!
1t
0u
1j
1`
0^
1J
1I
1H
1C
0B
1(
1)
1*
1/
00
0p
#1875000
0!
0=
15
#1887500
1!
1=
05
0Q
0R
1O
1P
#1900000
0!
0=
15
#1912500
1!
1=
05
1Q
1R
0O
0P
1a
0_
0{
1"!
1s
0t
0q
0k
0b
0j
0`
0L
1G
1D
0C
0&
1+
1.
0/
0n
0m
1p
0o
#1925000
0!
0=
15
#1937500
1!
1=
05
0Q
0R
1O
1P
#1950000
0!
0=
15
#1962500
1!
1=
05
1Q
1R
0O
0P
0c
0a
0z
1{
0}
0~
0!!
0"!
1r
0s
1j
1d
1S
1q
1k
1b
0M
1L
0J
0I
0H
0G
1E
0D
0%
1&
0(
0)
0*
0+
1-
0.
0p
1T
1m
1o
#1975000
0!
0=
15
#1987500
1!
1=
05
0Q
0R
1O
1P
