FifthProject/simulation/qsim/FifthProject.msim.vcd
$comment
	File created using the following command:
		vcd file FifthProject.msim.vcd -direction
$end
$date
	Mon Nov 06 12:15:55 2017
$end
$version
	ModelSim Version 10.1d
$end
$timescale
	1ps
$end
$scope module FifthProject_vlg_vec_tst $end
$var reg 1 ! clk $end
$var reg 1 " reset $end
$var wire 1 # out [7] $end
$var wire 1 $ out [6] $end
$var wire 1 % out [5] $end
$var wire 1 & out [4] $end
$var wire 1 ' out [3] $end
$var wire 1 ( out [2] $end
$var wire 1 ) out [1] $end
$var wire 1 * out [0] $end
$var wire 1 + sampler $end
$scope module i1 $end
$var wire 1 , gnd $end
$var wire 1 - vcc $end
$var wire 1 . unknown $end
$var tri1 1 / devclrn $end
$var tri1 1 0 devpor $end
$var tri1 1 1 devoe $end
$var wire 1 2 clk~input_o $end
$var wire 1 3 clk~inputclkctrl_outclk $end
$var wire 1 4 out[7]~output_o $end
$var wire 1 5 out[6]~output_o $end
$var wire 1 6 out[5]~output_o $end
$var wire 1 7 out[4]~output_o $end
$var wire 1 8 out[3]~output_o $end
$var wire 1 9 out[2]~output_o $end
$var wire 1 : out[1]~output_o $end
$var wire 1 ; out[0]~output_o $end
$var wire 1 < inst|state.S3~feeder_combout $end
$var wire 1 = reset~input_o $end
$var wire 1 > reset~inputclkctrl_outclk $end
$var wire 1 ? inst|state.S3~q $end
$var wire 1 @ inst|state.S4~feeder_combout $end
$var wire 1 A inst|state.S4~q $end
$var wire 1 B inst|state.S5~feeder_combout $end
$var wire 1 C inst|state.S5~q $end
$var wire 1 D inst|state.S6~feeder_combout $end
$var wire 1 E inst|state.S6~q $end
$var wire 1 F inst|state.S7~feeder_combout $end
$var wire 1 G inst|state.S7~q $end
$var wire 1 H inst|state.S0~0_combout $end
$var wire 1 I inst|state.S0~q $end
$var wire 1 J inst|state.S1~0_combout $end
$var wire 1 K inst|state.S1~q $end
$var wire 1 L inst|state.S2~feeder_combout $end
$var wire 1 M inst|state.S2~q $end
$var wire 1 N inst|WideOr0~0_combout $end
$var wire 1 O inst|WideOr2~0_combout $end
$var wire 1 P inst|WideOr1~0_combout $end
$var wire 1 Q inst1|Decoder0~0_combout $end
$var wire 1 R inst1|Decoder0~1_combout $end
$var wire 1 S inst1|Decoder0~2_combout $end
$var wire 1 T inst1|Decoder0~3_combout $end
$var wire 1 U inst1|Decoder0~4_combout $end
$var wire 1 V inst1|Decoder0~5_combout $end
$var wire 1 W inst1|Decoder0~6_combout $end
$var wire 1 X inst1|Decoder0~7_combout $end
$upscope $end
$upscope $end
$enddefinitions $end
#0
$dumpvars
1!
0"
0*
1)
1(
1'
1&
1%
1$
1#
x+
0,
1-
x.
1/
10
11
12
13
14
15
16
17
18
19
1:
0;
0<
0=
0>
0?
0@
0A
0B
0C
0D
0E
0F
0G
1H
0I
1J
0K
0L
0M
1N
1O
1P
0Q
0R
0S
0T
0U
0V
0W
1X
$end
#25000
0!
1"
02
1=
03
1>
0+
#50000
1!
0"
12
0=
13
0>
1+
#75000
0!
02
03
0+
#100000
1!
12
13
1+
1K
1I
1L
0O
0J
0X
1W
1;
0:
1*
0)
#125000
0!
02
03
0+
#150000
1!
12
13
1+
1M
0K
1O
1<
0P
0L
0W
1V
1:
09
1)
0(
#175000
0!
02
03
0+
#200000
1!
12
13
1+
0M
1?
0O
0<
1@
0V
1U
19
08
1(
0'
#225000
0!
02
03
0+
#250000
1!
12
13
1+
1A
0?
1P
1O
1B
0N
0@
0U
1T
18
07
1'
0&
#275000
0!
02
03
0+
#300000
1!
12
13
1+
1C
0A
1D
0O
0B
0T
1S
17
06
1&
0%
#325000
0!
02
03
0+
#350000
1!
12
13
1+
1E
0C
1O
1F
0P
0D
0S
1R
16
05
1%
0$
#375000
0!
02
03
0+
#400000
1!
12
13
1+
1G
0E
0H
0O
0F
0R
1Q
15
04
1$
0#
#425000
0!
02
03
0+
#450000
1!
12
13
1+
0I
0G
1P
1O
1N
1J
1H
1X
0Q
0;
14
0*
1#
#475000
0!
02
03
0+
#500000
1!
12
13
1+
1K
1I
1L
0O
0J
0X
1W
1;
0:
1*
0)
#525000
0!
02
03
0+
#550000
1!
12
13
1+
1M
0K
1O
1<
0P
0L
0W
1V
1:
09
1)
0(
#575000
0!
02
03
0+
#600000
1!
12
13
1+
0M
1?
0O
0<
1@
0V
1U
19
08
1(
0'
#625000
0!
02
03
0+
#650000
1!
12
13
1+
1A
0?
1P
1O
1B
0N
0@
0U
1T
18
07
1'
0&
#675000
1"
0!
1=
02
1>
03
0+
0A
0I
0B
1N
1J
1X
0T
0;
17
0*
1&
#700000
0"
1!
0=
12
0>
13
1+
#725000
0!
02
03
0+
#750000
1!
12
13
1+
1K
1I
1L
0O
0J
0X
1W
1;
0:
1*
0)
#775000
0!
02
03
0+
#800000
1!
12
13
1+
1M
0K
1O
1<
0P
0L
0W
1V
1:
09
1)
0(
#825000
0!
02
03
0+
#850000
1!
12
13
1+
0M
1?
0O
0<
1@
0V
1U
19
08
1(
0'
#875000
0!
02
03
0+
#900000
1!
12
13
1+
1A
0?
1P
1O
1B
0N
0@
0U
1T
18
07
1'
0&
#925000
0!
02
03
0+
#950000
1!
12
13
1+
1C
0A
1D
0O
0B
0T
1S
17
06
1&
0%
#975000
0!
02
03
0+
#1000000
1!
12
13
1+
1E
0C
1O
1F
0P
0D
0S
1R
16
05
1%
0$
#1025000
0!
02
03
0+
#1050000
1!
12
13
1+
1G
0E
0H
0O
0F
0R
1Q
15
04
1$
0#
#1075000
0!
02
03
0+
#1100000
1!
12
13
1+
0I
0G
1P
1O
1N
1J
1H
1X
0Q
0;
14
0*
1#
#1125000
0!
02
03
0+
#1150000
1!
12
13
1+
1K
1I
1L
0O
0J
0X
1W
1;
0:
1*
0)
#1175000
0!
02
03
0+
#1200000
1!
12
13
1+
1M
0K
1O
1<
0P
0L
0W
1V
1:
09
1)
0(
#1225000
0!
02
03
0+
#1250000
1!
12
13
1+
0M
1?
0O
0<
1@
0V
1U
19
08
1(
0'
#1275000
0!
02
03
0+
#1300000
1!
12
13
1+
1A
0?
1P
1O
1B
0N
0@
0U
1T
18
07
1'
0&
#1325000
1"
0!
1=
02
1>
03
0+
0A
0I
0B
1N
1J
1X
0T
0;
17
0*
1&
#1350000
0"
1!
0=
12
0>
13
1+
#1375000
0!
02
03
0+
#1400000
1!
12
13
1+
1K
1I
1L
0O
0J
0X
1W
1;
0:
1*
0)
#1425000
0!
02
03
0+
#1450000
1!
12
13
1+
1M
0K
1O
1<
0P
0L
0W
1V
1:
09
1)
0(
#1475000
0!
02
03
0+
#1500000
1!
12
13
1+
0M
1?
0O
0<
1@
0V
1U
19
08
1(
0'
#1525000
0!
02
03
0+
#1550000
1!
12
13
1+
1A
0?
1P
1O
1B
0N
0@
0U
1T
18
07
1'
0&
#1575000
0!
02
03
0+
#1600000
1!
12
13
1+
1C
0A
1D
0O
0B
0T
1S
17
06
1&
0%
#1625000
0!
02
03
0+
#1650000
1!
12
13
1+
1E
0C
1O
1F
0P
0D
0S
1R
16
05
1%
0$
#1675000
0!
02
03
0+
#1700000
1!
12
13
1+
1G
0E
0H
0O
0F
0R
1Q
15
04
1$
0#
#1725000
0!
02
03
0+
#1750000
1!
12
13
1+
0I
0G
1P
1O
1N
1J
1H
1X
0Q
0;
14
0*
1#
#1775000
0!
02
03
0+
#1800000
1!
12
13
1+
1K
1I
1L
0O
0J
0X
1W
1;
0:
1*
0)
#1825000
0!
02
03
0+
#1850000
1!
12
13
1+
1M
0K
1O
1<
0P
0L
0W
1V
1:
09
1)
0(
#1875000
0!
02
03
0+
#1900000
1!
12
13
1+
0M
1?
0O
0<
1@
0V
1U
19
08
1(
0'
#1925000
0!
02
03
0+
#1950000
1!
12
13
1+
1A
0?
1P
1O
1B
0N
0@
0U
1T
18
07
1'
0&
#1975000
0!
02
03
0+
