final/simulation/qsim/final.msim.vcd
$comment
	File created using the following command:
		vcd file final.msim.vcd -direction
$end
$date
	Thu Dec 28 17:14:05 2017
$end
$version
	ModelSim Version 10.1d
$end
$timescale
	1ps
$end
$scope module count_dis_vlg_vec_tst $end
$var reg 1 ! clear_dis $end
$var reg 1 " clk_dis $end
$var reg 1 # p_dis $end
$var wire 1 $ out_dis [11] $end
$var wire 1 % out_dis [10] $end
$var wire 1 & out_dis [9] $end
$var wire 1 ' out_dis [8] $end
$var wire 1 ( out_dis [7] $end
$var wire 1 ) out_dis [6] $end
$var wire 1 * out_dis [5] $end
$var wire 1 + out_dis [4] $end
$var wire 1 , out_dis [3] $end
$var wire 1 - out_dis [2] $end
$var wire 1 . out_dis [1] $end
$var wire 1 / out_dis [0] $end
$var wire 1 0 sampler $end
$scope module i1 $end
$var wire 1 1 gnd $end
$var wire 1 2 vcc $end
$var wire 1 3 unknown $end
$var tri1 1 4 devclrn $end
$var tri1 1 5 devpor $end
$var tri1 1 6 devoe $end
$var wire 1 7 inst|46~0_combout $end
$var wire 1 8 out_dis[11]~output_o $end
$var wire 1 9 out_dis[10]~output_o $end
$var wire 1 : out_dis[9]~output_o $end
$var wire 1 ; out_dis[8]~output_o $end
$var wire 1 < out_dis[7]~output_o $end
$var wire 1 = out_dis[6]~output_o $end
$var wire 1 > out_dis[5]~output_o $end
$var wire 1 ? out_dis[4]~output_o $end
$var wire 1 @ out_dis[3]~output_o $end
$var wire 1 A out_dis[2]~output_o $end
$var wire 1 B out_dis[1]~output_o $end
$var wire 1 C out_dis[0]~output_o $end
$var wire 1 D p_dis~input_o $end
$var wire 1 E clk_dis~input_o $end
$var wire 1 F inst9~combout $end
$var wire 1 G inst9~clkctrl_outclk $end
$var wire 1 H inst|6~0_combout $end
$var wire 1 I clear_dis~input_o $end
$var wire 1 J clear_dis~inputclkctrl_outclk $end
$var wire 1 K inst|6~q $end
$var wire 1 L inst1|6~0_combout $end
$var wire 1 M inst1|6~q $end
$var wire 1 N inst|13~combout $end
$var wire 1 O inst|9~q $end
$var wire 1 P inst3~0_combout $end
$var wire 1 Q inst2|10~combout $end
$var wire 1 R inst2|6~q $end
$var wire 1 S inst3~combout $end
$var wire 1 T inst2|50~0_combout $end
$var wire 1 U inst2|11~combout $end
$var wire 1 V inst2|7~q $end
$var wire 1 W inst2|12~0_combout $end
$var wire 1 X inst2|12~combout $end
$var wire 1 Y inst2|8~q $end
$var wire 1 Z inst2|13~0_combout $end
$var wire 1 [ inst2|13~1_combout $end
$var wire 1 \ inst2|9~q $end
$var wire 1 ] inst1|11~combout $end
$var wire 1 ^ inst1|7~q $end
$var wire 1 _ inst1|12~combout $end
$var wire 1 ` inst1|8~q $end
$var wire 1 a inst1|13~0_combout $end
$var wire 1 b inst1|13~1_combout $end
$var wire 1 c inst1|9~q $end
$var wire 1 d inst|12~0_combout $end
$var wire 1 e inst|8~q $end
$var wire 1 f inst|11~combout $end
$var wire 1 g inst|7~q $end
$upscope $end
$upscope $end
$enddefinitions $end
#0
$dumpvars
1!
0"
1#
0/
0.
0-
0,
0+
0*
0)
0(
0'
0&
0%
0$
x0
01
12
x3
14
15
16
07
08
09
0:
0;
0<
0=
0>
0?
0@
0A
0B
0C
1D
0E
0F
0G
1H
1I
1J
0K
0L
0M
0N
0O
0P
0Q
0R
0S
0T
0U
0V
1W
0X
0Y
0Z
0[
0\
0]
0^
0_
0`
0a
0b
0c
0d
0e
0f
0g
$end
#5000
1"
1E
00
1F
1G
#10000
0!
0"
0I
0E
0J
10
0F
0G
#15000
1"
1E
00
1F
1G
1K
1f
0H
1C
1/
#20000
0"
0E
10
0F
0G
#25000
1"
1E
00
1F
1G
1g
0K
1H
1B
0C
1.
0/
#30000
0"
0E
10
0F
0G
#35000
1"
1E
00
1F
1G
1K
0f
1d
0H
1C
1/
#40000
0"
0E
10
0F
0G
#45000
1"
1E
00
1F
1G
0g
1e
0K
1H
0B
1A
0C
0.
1-
0/
#50000
0"
0E
10
0F
0G
#55000
1"
1E
00
1F
1G
1K
1f
0H
1C
1/
#60000
0"
0E
10
0F
0G
#65000
1"
1E
00
1F
1G
1g
0K
1H
1B
0C
1.
0/
#70000
0"
0E
10
0F
0G
#75000
1"
1E
00
1F
1G
1K
0f
0d
0H
17
1C
1/
1N
#80000
0"
0E
10
0F
0G
#85000
1"
1E
00
1F
1G
0g
0e
1O
0K
07
1H
0B
0A
1@
0C
0.
0-
1,
0/
#90000
0"
0E
10
0F
0G
#95000
1"
1E
00
1F
1G
1K
0N
1L
0H
1C
1/
#100000
0"
0E
10
0F
0G
#105000
1"
1E
00
1F
1G
0O
1M
0K
1H
0@
1?
0C
0,
1+
0/
#110000
0"
0E
10
0F
0G
#115000
1"
1E
00
1F
1G
1K
1f
0H
1C
1/
#120000
0"
0E
10
0F
0G
#125000
1"
1E
00
1F
1G
1g
0K
1H
1B
0C
1.
0/
#130000
0"
0E
10
0F
0G
#135000
1"
1E
00
1F
1G
1K
0f
1d
0H
1C
1/
#140000
0"
0E
10
0F
0G
#145000
1"
1E
00
1F
1G
0g
1e
0K
1H
0B
1A
0C
0.
1-
0/
#150000
0"
0E
10
0F
0G
#155000
1"
1E
00
1F
1G
1K
1f
0H
1C
1/
#160000
0#
0"
0D
0E
10
0F
0G
#165000
1"
1E
00
#170000
0"
0E
10
#175000
1"
1E
00
#180000
0"
0E
10
#185000
1"
1E
00
#190000
0"
0E
10
#195000
1"
1E
00
#200000
0"
0E
10
#205000
1"
1E
00
#210000
0"
0E
10
#215000
1"
1E
00
#220000
0"
0E
10
#225000
1"
1E
00
#230000
0"
0E
10
#235000
1"
1E
00
#240000
0"
0E
10
#245000
1"
1E
00
#250000
0"
0E
10
#255000
1"
1E
00
#260000
1#
0"
1D
0E
10
#265000
1"
1E
00
1F
1G
1g
0K
1H
1B
0C
1.
0/
#270000
0"
0E
10
0F
0G
#275000
1"
1E
00
1F
1G
1K
0f
0d
0H
17
1C
1/
1N
#280000
0"
0E
10
0F
0G
#285000
1"
1E
00
1F
1G
0g
0e
1O
0K
07
1H
0B
0A
1@
0C
0.
0-
1,
0/
#290000
0"
0E
10
0F
0G
#295000
1"
1E
00
1F
1G
1K
1P
0N
0L
0H
1C
1/
1]
#300000
0"
0E
10
0F
0G
#305000
1"
1E
00
1F
1G
1^
0O
0M
0K
1_
0]
0P
1H
1>
0@
0?
0C
1*
0,
0+
0/
0_
1]
#310000
0"
0E
10
0F
0G
#315000
1"
1E
00
1F
1G
1K
1f
0H
1C
1/
#320000
0"
0E
10
0F
0G
#325000
1"
1E
00
1F
1G
1g
0K
1H
1B
0C
1.
0/
#330000
0"
0E
10
0F
0G
#335000
1"
1E
00
1F
1G
1K
0f
1d
0H
1C
1/
#340000
0"
0E
10
0F
0G
#345000
1"
1E
00
1F
1G
0g
1e
0K
1H
0B
1A
0C
0.
1-
0/
#350000
0"
0E
10
0F
0G
#355000
1"
1E
00
1F
1G
1K
1f
0H
1C
1/
#360000
0"
0E
10
0F
0G
#365000
1"
1E
00
1F
1G
1g
0K
1H
1B
0C
1.
0/
#370000
0"
0E
10
0F
0G
#375000
1"
1E
00
1F
1G
1K
0f
0d
0H
17
1C
1/
1N
#380000
0"
0E
10
0F
0G
#385000
1"
1E
00
1F
1G
0g
0e
1O
0K
07
1H
0B
0A
1@
0C
0.
0-
1,
0/
#390000
0"
0E
10
0F
0G
#395000
1"
1E
00
1F
1G
1K
0N
1L
0H
1C
1/
#400000
0"
0E
10
0F
0G
#405000
1"
1E
00
1F
1G
0O
1M
0K
1H
0@
1?
0C
0,
1+
0/
#410000
0"
0E
10
0F
0G
#415000
1"
1E
00
1F
1G
1K
1f
0H
1C
1/
#420000
0"
0E
10
0F
0G
#425000
1"
1E
00
1F
1G
1g
0K
1H
1B
0C
1.
0/
#430000
0"
0E
10
0F
0G
#435000
1"
1E
00
1F
1G
1K
0f
1d
0H
1C
1/
#440000
0"
0E
10
0F
0G
#445000
1"
1E
00
1F
1G
0g
1e
0K
1H
0B
1A
0C
0.
1-
0/
#450000
0"
0E
10
0F
0G
#455000
1"
1E
00
1F
1G
1K
1f
0H
1C
1/
#460000
0"
0E
10
0F
0G
#465000
1"
1E
00
1F
1G
1g
0K
1H
1B
0C
1.
0/
#470000
0"
0E
10
0F
0G
#475000
1"
1E
00
1F
1G
1K
0f
0d
0H
17
1C
1/
1N
#480000
0"
0E
10
0F
0G
#485000
1"
1E
00
1F
1G
0g
0e
1O
0K
07
1H
0B
0A
1@
0C
0.
0-
1,
0/
#490000
0"
0E
10
0F
0G
#495000
1"
1E
00
1F
1G
1K
1P
0N
0L
0H
1C
1/
1_
0]
#500000
0"
0E
10
0F
0G
#505000
1"
1E
00
1F
1G
1`
0^
0O
0M
0K
1]
0P
1H
1=
0>
0@
0?
0C
1)
0*
0,
0+
0/
0]
#510000
0"
0E
10
0F
0G
#515000
1"
1E
00
1F
1G
1K
1f
0H
1C
1/
#520000
0"
0E
10
0F
0G
#525000
1"
1E
00
1F
1G
1g
0K
1H
1B
0C
1.
0/
#530000
0"
0E
10
0F
0G
#535000
1"
1E
00
1F
1G
1K
0f
1d
0H
1C
1/
#540000
0"
0E
10
0F
0G
#545000
1"
1E
00
1F
1G
0g
1e
0K
1H
0B
1A
0C
0.
1-
0/
#550000
0"
0E
10
0F
0G
#555000
1"
1E
00
1F
1G
1K
1f
0H
1C
1/
#560000
0"
0E
10
0F
0G
#565000
1"
1E
00
1F
1G
1g
0K
1H
1B
0C
1.
0/
#570000
0"
0E
10
0F
0G
#575000
1"
1E
00
1F
1G
1K
0f
0d
0H
17
1C
1/
1N
#580000
0"
0E
10
0F
0G
#585000
1"
1E
00
1F
1G
0g
0e
1O
0K
07
1H
0B
0A
1@
0C
0.
0-
1,
0/
#590000
0"
0E
10
0F
0G
#595000
1"
1E
00
1F
1G
1K
0N
1L
0H
1C
1/
#600000
0"
0E
10
0F
0G
#605000
1"
1E
00
1F
1G
0O
1M
0K
1H
0@
1?
0C
0,
1+
0/
#610000
0"
0E
10
0F
0G
#615000
1"
1E
00
1F
1G
1K
1f
0H
1C
1/
#620000
0"
0E
10
0F
0G
#625000
1"
1E
00
1F
1G
1g
0K
1H
1B
0C
1.
0/
#630000
0"
0E
10
0F
0G
#635000
1"
1E
00
1F
1G
1K
0f
1d
0H
1C
1/
#640000
0"
0E
10
0F
0G
#645000
1"
1E
00
1F
1G
0g
1e
0K
1H
0B
1A
0C
0.
1-
0/
#650000
0"
0E
10
0F
0G
#655000
1"
1E
00
1F
1G
1K
1f
0H
1C
1/
#660000
0"
0E
10
0F
0G
#665000
1"
1E
00
1F
1G
1g
0K
1H
1B
0C
1.
0/
#670000
0"
0E
10
0F
0G
#675000
1"
1E
00
1F
1G
1K
0f
0d
0H
17
1C
1/
1N
#680000
0"
0E
10
0F
0G
#685000
1"
1E
00
1F
1G
0g
0e
1O
0K
07
1H
0B
0A
1@
0C
0.
0-
1,
0/
#690000
0"
0E
10
0F
0G
#695000
1"
1E
00
1F
1G
1K
1P
0N
0L
0H
1C
1/
1]
#700000
0"
0E
10
0F
0G
#705000
1"
1E
00
1F
1G
1^
0O
0M
0K
1a
0_
0]
0P
1H
1>
0@
0?
0C
1*
0,
0+
0/
1b
0a
1_
1]
0b
#710000
0"
0E
10
0F
0G
#715000
1"
1E
00
1F
1G
1K
1f
0H
1C
1/
#720000
0"
0E
10
0F
0G
#725000
1"
1E
00
1F
1G
1g
0K
1H
1B
0C
1.
0/
#730000
0"
0E
10
0F
0G
#735000
1"
1E
00
1F
1G
1K
0f
1d
0H
1C
1/
#740000
0"
0E
10
0F
0G
#745000
1"
1E
00
1F
1G
0g
1e
0K
1H
0B
1A
0C
0.
1-
0/
#750000
0"
0E
10
0F
0G
#755000
1"
1E
00
1F
1G
1K
1f
0H
1C
1/
#760000
0"
0E
10
0F
0G
#765000
1"
1E
00
1F
1G
1g
0K
1H
1B
0C
1.
0/
#770000
0"
0E
10
0F
0G
#775000
1"
1E
00
1F
1G
1K
0f
0d
0H
17
1C
1/
1N
#780000
0"
0E
10
0F
0G
#785000
1"
1E
00
1F
1G
0g
0e
1O
0K
07
1H
0B
0A
1@
0C
0.
0-
1,
0/
#790000
0"
0E
10
0F
0G
#795000
1"
1E
00
1F
1G
1K
0N
1L
0H
1C
1/
#800000
0"
0E
10
0F
0G
#805000
1"
1E
00
1F
1G
0O
1M
0K
1H
0@
1?
0C
0,
1+
0/
#810000
0"
0E
10
0F
0G
#815000
1"
1E
00
1F
1G
1K
1f
0H
1C
1/
#820000
0"
0E
10
0F
0G
#825000
1"
1E
00
1F
1G
1g
0K
1H
1B
0C
1.
0/
#830000
0"
0E
10
0F
0G
#835000
1"
1E
00
1F
1G
1K
0f
1d
0H
1C
1/
#840000
0"
0E
10
0F
0G
#845000
1"
1E
00
1F
1G
0g
1e
0K
1H
0B
1A
0C
0.
1-
0/
#850000
0"
0E
10
0F
0G
#855000
1"
1E
00
1F
1G
1K
1f
0H
1C
1/
#860000
0"
0E
10
0F
0G
#865000
1"
1E
00
1F
1G
1g
0K
1H
1B
0C
1.
0/
#870000
0"
0E
10
0F
0G
#875000
1"
1E
00
1F
1G
1K
0f
0d
0H
17
1C
1/
1N
#880000
0"
0E
10
0F
0G
#885000
1"
1E
00
1F
1G
0g
0e
1O
0K
07
1H
0B
0A
1@
0C
0.
0-
1,
0/
#890000
0"
0E
10
0F
0G
#895000
1"
1E
00
1F
1G
1K
1P
0N
0L
0H
1C
1/
1a
0_
0]
1b
#900000
0"
0E
10
0F
0G
#905000
1"
1E
00
1F
1G
1c
0`
0^
0O
0M
0K
0a
1Q
0P
1H
1<
0=
0>
0@
0?
0C
1(
0)
0*
0,
0+
0/
0b
1a
0Q
1b
#910000
0"
0E
10
0F
0G
#915000
1"
1E
00
1F
1G
1K
1f
0H
1C
1/
#920000
0"
0E
10
0F
0G
#925000
1"
1E
00
1F
1G
1g
0K
1H
1B
0C
1.
0/
#930000
0"
0E
10
0F
0G
#935000
1"
1E
00
1F
1G
1K
0f
1d
0H
1C
1/
#940000
0"
0E
10
0F
0G
#945000
1"
1E
00
1F
1G
0g
1e
0K
1H
0B
1A
0C
0.
1-
0/
#950000
0"
0E
10
0F
0G
#955000
1"
1E
00
1F
1G
1K
1f
0H
1C
1/
#960000
0"
0E
10
0F
0G
#965000
1"
1E
00
1F
1G
1g
0K
1H
1B
0C
1.
0/
#970000
0"
0E
10
0F
0G
#975000
1"
1E
00
1F
1G
1K
0f
0d
0H
17
1C
1/
1N
#980000
0"
0E
10
0F
0G
#985000
1"
1E
00
1F
1G
0g
0e
1O
0K
07
1H
0B
0A
1@
0C
0.
0-
1,
0/
#990000
0"
0E
10
0F
0G
#995000
1"
1E
00
1F
1G
1K
0N
1L
0H
1C
1/
